<?xml version="1.0" encoding="utf-8"?>
<!DOCTYPE eagle SYSTEM "eagle.dtd">
<eagle version="9.5.2">
<drawing>
<settings>
<setting alwaysvectorfont="no"/>
<setting verticaltext="up"/>
</settings>
<grid distance="50" unitdist="mil" unit="mil" style="lines" multiple="1" display="no" altdistance="5" altunitdist="mil" altunit="mil"/>
<layers>
<layer number="1" name="Top" color="4" fill="1" visible="yes" active="yes"/>
<layer number="16" name="Bottom" color="1" fill="1" visible="yes" active="yes"/>
<layer number="17" name="Pads" color="2" fill="1" visible="yes" active="yes"/>
<layer number="18" name="Vias" color="2" fill="1" visible="yes" active="yes"/>
<layer number="19" name="Unrouted" color="6" fill="1" visible="yes" active="yes"/>
<layer number="20" name="Dimension" color="24" fill="1" visible="yes" active="yes"/>
<layer number="21" name="tPlace" color="7" fill="1" visible="yes" active="yes"/>
<layer number="22" name="bPlace" color="7" fill="1" visible="yes" active="yes"/>
<layer number="23" name="tOrigins" color="15" fill="1" visible="yes" active="yes"/>
<layer number="24" name="bOrigins" color="15" fill="1" visible="yes" active="yes"/>
<layer number="25" name="tNames" color="7" fill="1" visible="yes" active="yes"/>
<layer number="26" name="bNames" color="7" fill="1" visible="yes" active="yes"/>
<layer number="27" name="tValues" color="7" fill="1" visible="yes" active="yes"/>
<layer number="28" name="bValues" color="7" fill="1" visible="yes" active="yes"/>
<layer number="29" name="tStop" color="7" fill="3" visible="no" active="yes"/>
<layer number="30" name="bStop" color="7" fill="6" visible="no" active="yes"/>
<layer number="31" name="tCream" color="7" fill="4" visible="no" active="yes"/>
<layer number="32" name="bCream" color="7" fill="5" visible="no" active="yes"/>
<layer number="33" name="tFinish" color="6" fill="3" visible="no" active="yes"/>
<layer number="34" name="bFinish" color="6" fill="6" visible="no" active="yes"/>
<layer number="35" name="tGlue" color="7" fill="4" visible="no" active="yes"/>
<layer number="36" name="bGlue" color="7" fill="5" visible="no" active="yes"/>
<layer number="37" name="tTest" color="7" fill="1" visible="no" active="yes"/>
<layer number="38" name="bTest" color="7" fill="1" visible="no" active="yes"/>
<layer number="39" name="tKeepout" color="4" fill="11" visible="yes" active="yes"/>
<layer number="40" name="bKeepout" color="1" fill="11" visible="yes" active="yes"/>
<layer number="41" name="tRestrict" color="4" fill="10" visible="yes" active="yes"/>
<layer number="42" name="bRestrict" color="1" fill="10" visible="yes" active="yes"/>
<layer number="43" name="vRestrict" color="2" fill="10" visible="yes" active="yes"/>
<layer number="44" name="Drills" color="7" fill="1" visible="no" active="yes"/>
<layer number="45" name="Holes" color="7" fill="1" visible="no" active="yes"/>
<layer number="46" name="Milling" color="3" fill="1" visible="no" active="yes"/>
<layer number="47" name="Measures" color="7" fill="1" visible="no" active="yes"/>
<layer number="48" name="Document" color="7" fill="1" visible="yes" active="yes"/>
<layer number="49" name="Reference" color="7" fill="1" visible="yes" active="yes"/>
<layer number="50" name="ReferenceLS" color="12" fill="1" visible="no" active="no"/>
<layer number="51" name="tDocu" color="7" fill="1" visible="yes" active="yes"/>
<layer number="52" name="bDocu" color="7" fill="1" visible="yes" active="yes"/>
<layer number="53" name="tGND_GNDA" color="7" fill="9" visible="no" active="no"/>
<layer number="54" name="bGND_GNDA" color="1" fill="9" visible="no" active="no"/>
<layer number="56" name="wert" color="7" fill="1" visible="no" active="no"/>
<layer number="57" name="tCAD" color="7" fill="1" visible="no" active="no"/>
<layer number="59" name="tCarbon" color="7" fill="1" visible="no" active="no"/>
<layer number="60" name="bCarbon" color="7" fill="1" visible="no" active="no"/>
<layer number="90" name="Modules" color="5" fill="1" visible="no" active="no"/>
<layer number="91" name="Nets" color="2" fill="1" visible="no" active="no"/>
<layer number="92" name="Busses" color="1" fill="1" visible="no" active="no"/>
<layer number="93" name="Pins" color="2" fill="1" visible="no" active="no"/>
<layer number="94" name="Symbols" color="4" fill="1" visible="no" active="no"/>
<layer number="95" name="Names" color="7" fill="1" visible="no" active="no"/>
<layer number="96" name="Values" color="7" fill="1" visible="no" active="no"/>
<layer number="97" name="Info" color="7" fill="1" visible="no" active="no"/>
<layer number="98" name="Guide" color="6" fill="1" visible="no" active="no"/>
<layer number="99" name="SpiceOrder" color="7" fill="1" visible="no" active="no"/>
<layer number="100" name="Muster" color="7" fill="1" visible="no" active="no"/>
<layer number="101" name="Patch_Top" color="12" fill="4" visible="yes" active="yes"/>
<layer number="102" name="Vscore" color="7" fill="1" visible="yes" active="yes"/>
<layer number="103" name="fp3" color="7" fill="1" visible="yes" active="yes"/>
<layer number="104" name="Name" color="7" fill="1" visible="yes" active="yes"/>
<layer number="105" name="Beschreib" color="9" fill="1" visible="yes" active="yes"/>
<layer number="106" name="BGA-Top" color="4" fill="1" visible="yes" active="yes"/>
<layer number="107" name="BD-Top" color="5" fill="1" visible="yes" active="yes"/>
<layer number="108" name="fp8" color="7" fill="1" visible="yes" active="yes"/>
<layer number="109" name="fp9" color="7" fill="1" visible="yes" active="yes"/>
<layer number="110" name="fp0" color="7" fill="1" visible="yes" active="yes"/>
<layer number="111" name="LPC17xx" color="7" fill="1" visible="yes" active="yes"/>
<layer number="112" name="tSilk" color="7" fill="1" visible="yes" active="yes"/>
<layer number="113" name="IDFDebug" color="7" fill="1" visible="yes" active="yes"/>
<layer number="114" name="Badge_Outline" color="7" fill="1" visible="yes" active="yes"/>
<layer number="115" name="ReferenceISLANDS" color="7" fill="1" visible="yes" active="yes"/>
<layer number="116" name="Patch_BOT" color="9" fill="4" visible="yes" active="yes"/>
<layer number="118" name="Rect_Pads" color="7" fill="1" visible="no" active="no"/>
<layer number="121" name="_tsilk" color="7" fill="1" visible="yes" active="yes"/>
<layer number="122" name="_bsilk" color="7" fill="1" visible="yes" active="yes"/>
<layer number="123" name="tTestmark" color="7" fill="1" visible="yes" active="yes"/>
<layer number="124" name="bTestmark" color="7" fill="1" visible="yes" active="yes"/>
<layer number="125" name="_tNames" color="7" fill="1" visible="yes" active="yes"/>
<layer number="126" name="_bNames" color="7" fill="1" visible="yes" active="yes"/>
<layer number="127" name="_tValues" color="7" fill="1" visible="yes" active="yes"/>
<layer number="128" name="_bValues" color="7" fill="1" visible="yes" active="yes"/>
<layer number="129" name="Mask" color="7" fill="1" visible="yes" active="yes"/>
<layer number="131" name="tAdjust" color="7" fill="1" visible="yes" active="yes"/>
<layer number="132" name="bAdjust" color="7" fill="1" visible="yes" active="yes"/>
<layer number="144" name="Drill_legend" color="7" fill="1" visible="yes" active="yes"/>
<layer number="150" name="Notes" color="7" fill="1" visible="yes" active="yes"/>
<layer number="151" name="HeatSink" color="7" fill="1" visible="yes" active="yes"/>
<layer number="152" name="_bDocu" color="7" fill="1" visible="yes" active="yes"/>
<layer number="153" name="FabDoc1" color="6" fill="1" visible="no" active="no"/>
<layer number="154" name="FabDoc2" color="2" fill="1" visible="no" active="no"/>
<layer number="155" name="FabDoc3" color="7" fill="15" visible="no" active="no"/>
<layer number="199" name="Contour" color="7" fill="1" visible="yes" active="yes"/>
<layer number="200" name="200bmp" color="1" fill="10" visible="yes" active="yes"/>
<layer number="201" name="201bmp" color="2" fill="1" visible="no" active="no"/>
<layer number="202" name="202bmp" color="3" fill="1" visible="no" active="no"/>
<layer number="203" name="203bmp" color="4" fill="10" visible="yes" active="yes"/>
<layer number="204" name="204bmp" color="5" fill="10" visible="yes" active="yes"/>
<layer number="205" name="205bmp" color="6" fill="10" visible="yes" active="yes"/>
<layer number="206" name="206bmp" color="7" fill="10" visible="yes" active="yes"/>
<layer number="207" name="207bmp" color="8" fill="10" visible="yes" active="yes"/>
<layer number="208" name="208bmp" color="9" fill="10" visible="yes" active="yes"/>
<layer number="209" name="209bmp" color="7" fill="1" visible="yes" active="yes"/>
<layer number="210" name="210bmp" color="7" fill="1" visible="yes" active="yes"/>
<layer number="211" name="211bmp" color="7" fill="1" visible="yes" active="yes"/>
<layer number="212" name="212bmp" color="7" fill="1" visible="yes" active="yes"/>
<layer number="213" name="213bmp" color="7" fill="1" visible="yes" active="yes"/>
<layer number="214" name="214bmp" color="7" fill="1" visible="yes" active="yes"/>
<layer number="215" name="215bmp" color="7" fill="1" visible="yes" active="yes"/>
<layer number="216" name="216bmp" color="7" fill="1" visible="yes" active="yes"/>
<layer number="217" name="217bmp" color="18" fill="1" visible="no" active="no"/>
<layer number="218" name="218bmp" color="19" fill="1" visible="no" active="no"/>
<layer number="219" name="219bmp" color="20" fill="1" visible="no" active="no"/>
<layer number="220" name="220bmp" color="21" fill="1" visible="no" active="no"/>
<layer number="221" name="221bmp" color="22" fill="1" visible="no" active="no"/>
<layer number="222" name="222bmp" color="23" fill="1" visible="no" active="no"/>
<layer number="223" name="223bmp" color="24" fill="1" visible="no" active="no"/>
<layer number="224" name="224bmp" color="25" fill="1" visible="no" active="no"/>
<layer number="225" name="225bmp" color="7" fill="1" visible="yes" active="yes"/>
<layer number="226" name="226bmp" color="7" fill="1" visible="yes" active="yes"/>
<layer number="227" name="227bmp" color="7" fill="1" visible="yes" active="yes"/>
<layer number="228" name="228bmp" color="7" fill="1" visible="yes" active="yes"/>
<layer number="229" name="229bmp" color="7" fill="1" visible="yes" active="yes"/>
<layer number="230" name="230bmp" color="7" fill="1" visible="yes" active="yes"/>
<layer number="231" name="Eagle3D_PG1" color="7" fill="1" visible="no" active="no"/>
<layer number="232" name="Eagle3D_PG2" color="7" fill="1" visible="no" active="no"/>
<layer number="233" name="Eagle3D_PG3" color="7" fill="1" visible="no" active="no"/>
<layer number="248" name="Housing" color="7" fill="1" visible="yes" active="yes"/>
<layer number="249" name="Edge" color="7" fill="1" visible="yes" active="yes"/>
<layer number="250" name="Descript" color="7" fill="1" visible="no" active="no"/>
<layer number="251" name="SMDround" color="7" fill="1" visible="no" active="no"/>
<layer number="254" name="cooling" color="7" fill="1" visible="yes" active="yes"/>
<layer number="255" name="routoute" color="7" fill="1" visible="yes" active="yes"/>
</layers>
<board>
<plain>
<wire x1="0" y1="0" x2="36.5" y2="0" width="0" layer="20" grouprefs="ALL"/>
<wire x1="36.5" y1="0" x2="36.5" y2="49.52" width="0" layer="20" grouprefs="ALL"/>
<wire x1="36.5" y1="49.52" x2="0" y2="49.52" width="0" layer="20" grouprefs="ALL"/>
<wire x1="0" y1="49.52" x2="0" y2="0" width="0" layer="20" grouprefs="ALL"/>
<text x="29.21" y="26.67" size="1.778" layer="16" rot="MR0" grouprefs="ALL">MK3</text>
<text x="25.4" y="7.62" size="1.778" layer="16" rot="MR90">Jan Jurca</text>
</plain>
<libraries>
<library name="Clean-Kong">
<description>Library redesigned with larger pads for easy manual soldering and lots of added components as connectors, boards for DIY arduino projects (HX711, ADXL, switch, buzzer, oled, etc)</description>
<packages>
<package name="C0805">
<description>&lt;b&gt;CAPACITOR&lt;/b&gt;&lt;p&gt;</description>
<wire x1="-1.973" y1="0.983" x2="1.973" y2="0.983" width="0.0508" layer="39"/>
<wire x1="1.973" y1="-0.983" x2="-1.973" y2="-0.983" width="0.0508" layer="39"/>
<wire x1="-1.973" y1="-0.983" x2="-1.973" y2="0.983" width="0.0508" layer="39"/>
<wire x1="-0.381" y1="0.66" x2="0.381" y2="0.66" width="0.1016" layer="51"/>
<wire x1="-0.356" y1="-0.66" x2="0.381" y2="-0.66" width="0.1016" layer="51"/>
<wire x1="1.973" y1="0.983" x2="1.973" y2="-0.983" width="0.0508" layer="39"/>
<smd name="1" x="-0.95" y="0" dx="1.3" dy="1.5" layer="1"/>
<smd name="2" x="0.95" y="0" dx="1.3" dy="1.5" layer="1"/>
<text x="-1.27" y="1.27" size="1.27" layer="25">&gt;NAME</text>
<text x="-1.27" y="-2.54" size="1.27" layer="27">&gt;VALUE</text>
<rectangle x1="-1.0922" y1="-0.7239" x2="-0.3421" y2="0.7262" layer="51"/>
<rectangle x1="0.3556" y1="-0.7239" x2="1.1057" y2="0.7262" layer="51"/>
<rectangle x1="-0.1001" y1="-0.4001" x2="0.1001" y2="0.4001" layer="35"/>
</package>
<package name="BOARD_A4988">
<pad name="VMOT" x="1.27" y="1.27" drill="0.8" diameter="1.6764"/>
<pad name="GNDMOT" x="1.27" y="3.81" drill="0.8" diameter="1.6764"/>
<pad name="M2AB" x="1.27" y="6.35" drill="0.8" diameter="1.6764"/>
<pad name="M2A" x="1.27" y="8.89" drill="0.8" diameter="1.6764"/>
<pad name="M1A" x="1.27" y="11.43" drill="0.8" diameter="1.6764"/>
<pad name="M1B" x="1.27" y="13.97" drill="0.8" diameter="1.6764"/>
<pad name="+5V" x="1.27" y="16.51" drill="0.8" diameter="1.6764"/>
<pad name="GND" x="1.27" y="19.05" drill="0.8" diameter="1.6764"/>
<pad name="ENABLE" x="13.97" y="1.27" drill="0.8" diameter="1.6764"/>
<pad name="MS1" x="13.97" y="3.81" drill="0.8" diameter="1.6764"/>
<pad name="MS2" x="13.97" y="6.35" drill="0.8" diameter="1.6764"/>
<pad name="MS3" x="13.97" y="8.89" drill="0.8" diameter="1.6764"/>
<pad name="RESET" x="13.97" y="11.43" drill="0.8" diameter="1.6764"/>
<pad name="SLEEP" x="13.97" y="13.97" drill="0.8" diameter="1.6764"/>
<pad name="STEP" x="13.97" y="16.51" drill="0.8" diameter="1.6764"/>
<pad name="DIR" x="13.97" y="19.05" drill="0.8" diameter="1.6764"/>
<wire x1="0" y1="20.32" x2="15.24" y2="20.32" width="0.127" layer="21"/>
<wire x1="15.24" y1="20.32" x2="15.24" y2="0" width="0.127" layer="21"/>
<wire x1="15.24" y1="0" x2="0" y2="0" width="0.127" layer="21"/>
<wire x1="0" y1="0" x2="0" y2="20.32" width="0.127" layer="21"/>
<circle x="7.62" y="17.78" radius="1.27" width="0.127" layer="21"/>
<text x="5.08" y="12.7" size="1.27" layer="25">&gt;NAME</text>
<text x="5.08" y="8.89" size="1.27" layer="27">A4988</text>
</package>
</packages>
</library>
<library name="eagle-ltspice" urn="urn:adsk.eagle:library:217">
<description>Default symbols for import LTspice schematics&lt;p&gt;
2012-10-29 alf@cadsoft.de&lt;br&gt;</description>
<packages>
<package name="C0805" library_version="1">
<description>&lt;b&gt;CAPACITOR&lt;/b&gt;&lt;p&gt;</description>
<wire x1="-1.973" y1="0.983" x2="1.973" y2="0.983" width="0.0508" layer="39"/>
<wire x1="1.973" y1="-0.983" x2="-1.973" y2="-0.983" width="0.0508" layer="39"/>
<wire x1="-1.973" y1="-0.983" x2="-1.973" y2="0.983" width="0.0508" layer="39"/>
<wire x1="-0.381" y1="0.66" x2="0.381" y2="0.66" width="0.1016" layer="51"/>
<wire x1="-0.356" y1="-0.66" x2="0.381" y2="-0.66" width="0.1016" layer="51"/>
<wire x1="1.973" y1="0.983" x2="1.973" y2="-0.983" width="0.0508" layer="39"/>
<rectangle x1="-1.0922" y1="-0.7239" x2="-0.3421" y2="0.7262" layer="51"/>
<rectangle x1="0.3556" y1="-0.7239" x2="1.1057" y2="0.7262" layer="51"/>
<rectangle x1="-0.1001" y1="-0.4001" x2="0.1001" y2="0.4001" layer="35"/>
<smd name="1" x="-0.95" y="0" dx="1.3" dy="1.5" layer="1"/>
<smd name="2" x="0.95" y="0" dx="1.3" dy="1.5" layer="1"/>
<text x="-1.27" y="1.27" size="1.27" layer="25">&gt;NAME</text>
<text x="-1.27" y="-2.54" size="1.27" layer="27">&gt;VALUE</text>
</package>
<package name="R0805" library_version="1">
<description>&lt;b&gt;RESISTOR&lt;/b&gt;&lt;p&gt;</description>
<wire x1="-0.41" y1="0.635" x2="0.41" y2="0.635" width="0.1524" layer="51"/>
<wire x1="-0.41" y1="-0.635" x2="0.41" y2="-0.635" width="0.1524" layer="51"/>
<wire x1="-1.973" y1="0.983" x2="1.973" y2="0.983" width="0.0508" layer="39"/>
<wire x1="1.973" y1="0.983" x2="1.973" y2="-0.983" width="0.0508" layer="39"/>
<wire x1="1.973" y1="-0.983" x2="-1.973" y2="-0.983" width="0.0508" layer="39"/>
<wire x1="-1.973" y1="-0.983" x2="-1.973" y2="0.983" width="0.0508" layer="39"/>
<rectangle x1="0.4064" y1="-0.6985" x2="1.0564" y2="0.7015" layer="51"/>
<rectangle x1="-1.0668" y1="-0.6985" x2="-0.4168" y2="0.7015" layer="51"/>
<rectangle x1="-0.1999" y1="-0.5001" x2="0.1999" y2="0.5001" layer="35"/>
<smd name="1" x="-0.95" y="0" dx="1.3" dy="1.5" layer="1"/>
<smd name="2" x="0.95" y="0" dx="1.3" dy="1.5" layer="1"/>
<text x="-0.635" y="1.27" size="1.27" layer="25">&gt;NAME</text>
<text x="-0.635" y="-2.54" size="1.27" layer="27">&gt;VALUE</text>
</package>
</packages>
</library>
<library name="capacitor-wima" urn="urn:adsk.eagle:library:116">
<description>&lt;b&gt;WIMA Capacitors&lt;/b&gt;&lt;p&gt;
&lt;author&gt;Created by librarian@cadsoft.de&lt;/author&gt;</description>
<packages>
<package name="C2.5-3" library_version="1">
<description>&lt;B&gt;MKS2&lt;/B&gt;, 5 x 3 mm, grid 2.54 mm</description>
<wire x1="-2.159" y1="1.524" x2="2.159" y2="1.524" width="0.1524" layer="21"/>
<wire x1="2.159" y1="-1.524" x2="-2.159" y2="-1.524" width="0.1524" layer="21"/>
<wire x1="2.413" y1="1.27" x2="2.413" y2="-1.27" width="0.1524" layer="21"/>
<wire x1="-2.413" y1="1.27" x2="-2.413" y2="-1.27" width="0.1524" layer="21"/>
<wire x1="2.159" y1="1.524" x2="2.413" y2="1.27" width="0.1524" layer="21" curve="-90"/>
<wire x1="-2.413" y1="1.27" x2="-2.159" y2="1.524" width="0.1524" layer="21" curve="-90"/>
<wire x1="2.159" y1="-1.524" x2="2.413" y2="-1.27" width="0.1524" layer="21" curve="90"/>
<wire x1="-2.413" y1="-1.27" x2="-2.159" y2="-1.524" width="0.1524" layer="21" curve="90"/>
<wire x1="1.27" y1="0" x2="0.381" y2="0" width="0.1524" layer="51"/>
<wire x1="0.381" y1="0" x2="0.254" y2="0" width="0.1524" layer="21"/>
<wire x1="0.254" y1="0" x2="0.254" y2="0.762" width="0.254" layer="21"/>
<wire x1="0.254" y1="0" x2="0.254" y2="-0.762" width="0.254" layer="21"/>
<wire x1="-0.254" y1="0.762" x2="-0.254" y2="0" width="0.254" layer="21"/>
<wire x1="-0.254" y1="0" x2="-0.254" y2="-0.762" width="0.254" layer="21"/>
<wire x1="-0.254" y1="0" x2="-0.381" y2="0" width="0.1524" layer="21"/>
<wire x1="-0.381" y1="0" x2="-1.27" y2="0" width="0.1524" layer="51"/>
<pad name="1" x="-1.27" y="0" drill="0.8128" diameter="1.6002" shape="octagon"/>
<pad name="2" x="1.27" y="0" drill="0.8128" diameter="1.6002" shape="octagon"/>
<text x="-1.651" y="1.778" size="1.27" layer="25" ratio="10">&gt;NAME</text>
<text x="-1.651" y="-3.048" size="1.27" layer="27" ratio="10">&gt;VALUE</text>
</package>
</packages>
</library>
<library name="battery" urn="urn:adsk.eagle:library:109">
<description>&lt;b&gt;Lithium Batteries and NC Accus&lt;/b&gt;&lt;p&gt;
&lt;author&gt;Created by librarian@cadsoft.de&lt;/author&gt;</description>
<packages>
<package name="AB9V" library_version="1">
<description>&lt;B&gt;9-V BATTERY CLIP&lt;/B&gt;</description>
<wire x1="-2.54" y1="-3.175" x2="-2.54" y2="-1.905" width="0.254" layer="21"/>
<wire x1="-2.54" y1="1.905" x2="-2.54" y2="3.175" width="0.254" layer="21"/>
<wire x1="-1.905" y1="2.54" x2="-3.175" y2="2.54" width="0.254" layer="21"/>
<wire x1="-2.54" y1="4.318" x2="-1.778" y2="5.08" width="0.1524" layer="21"/>
<wire x1="-1.778" y1="5.08" x2="1.778" y2="5.08" width="0.1524" layer="21"/>
<wire x1="2.54" y1="4.318" x2="1.778" y2="5.08" width="0.1524" layer="21"/>
<wire x1="2.54" y1="4.318" x2="2.54" y2="-4.318" width="0.1524" layer="21"/>
<wire x1="1.778" y1="-5.08" x2="2.54" y2="-4.318" width="0.1524" layer="21"/>
<wire x1="1.778" y1="-5.08" x2="-1.778" y2="-5.08" width="0.1524" layer="21"/>
<wire x1="-2.54" y1="-4.318" x2="-1.778" y2="-5.08" width="0.1524" layer="21"/>
<circle x="0" y="2.54" radius="1.27" width="0.1524" layer="51"/>
<circle x="0" y="-2.54" radius="1.27" width="0.1524" layer="51"/>
<pad name="-" x="0" y="-2.54" drill="1.1176" diameter="3.1496" shape="octagon"/>
<pad name="+" x="0" y="2.54" drill="1.1176" diameter="3.1496" shape="octagon"/>
<text x="-1.905" y="-1.143" size="1.27" layer="21" ratio="16" rot="R90">9V</text>
<text x="-3.81" y="-2.54" size="1.27" layer="25" ratio="10" rot="R90">&gt;NAME</text>
<text x="4.445" y="-2.54" size="1.27" layer="27" ratio="10" rot="R90">&gt;VALUE</text>
</package>
</packages>
</library>
<library name="linear" urn="urn:adsk.eagle:library:262">
<description>&lt;b&gt;Linear Devices&lt;/b&gt;&lt;p&gt;
Operational amplifiers,  comparators, voltage regulators, ADCs, DACs, etc.&lt;p&gt;
&lt;author&gt;Created by librarian@cadsoft.de&lt;/author&gt;</description>
<packages>
<package name="SOT23" library_version="1">
<description>&lt;b&gt;SMALL OUTLINE TRANSISTOR&lt;/b&gt;&lt;p&gt;
reflow soldering</description>
<wire x1="-1.973" y1="1.983" x2="1.973" y2="1.983" width="0.0508" layer="39"/>
<wire x1="1.973" y1="-1.983" x2="-1.973" y2="-1.983" width="0.0508" layer="39"/>
<wire x1="-1.973" y1="-1.983" x2="-1.973" y2="1.983" width="0.0508" layer="39"/>
<wire x1="1.973" y1="1.983" x2="1.973" y2="-1.983" width="0.0508" layer="39"/>
<wire x1="1.422" y1="0.66" x2="1.422" y2="-0.66" width="0.1524" layer="51"/>
<wire x1="1.422" y1="-0.66" x2="-1.422" y2="-0.66" width="0.1524" layer="51"/>
<wire x1="-1.422" y1="-0.66" x2="-1.422" y2="0.66" width="0.1524" layer="51"/>
<wire x1="-1.422" y1="0.66" x2="1.422" y2="0.66" width="0.1524" layer="51"/>
<wire x1="-1.422" y1="-0.152" x2="-1.422" y2="0.66" width="0.1524" layer="21"/>
<wire x1="-1.422" y1="0.66" x2="-0.864" y2="0.66" width="0.1524" layer="21"/>
<wire x1="0.864" y1="0.66" x2="1.422" y2="0.66" width="0.1524" layer="21"/>
<wire x1="1.422" y1="0.66" x2="1.422" y2="-0.152" width="0.1524" layer="21"/>
<smd name="3" x="0" y="1.1" dx="1" dy="1.4" layer="1"/>
<smd name="2" x="0.95" y="-1.1" dx="1" dy="1.4" layer="1"/>
<smd name="1" x="-0.95" y="-1.1" dx="1" dy="1.4" layer="1"/>
<text x="-1.905" y="1.905" size="1.27" layer="25">&gt;NAME</text>
<text x="-1.905" y="-3.175" size="1.27" layer="27">&gt;VALUE</text>
<rectangle x1="-0.2286" y1="0.7112" x2="0.2286" y2="1.2954" layer="51"/>
<rectangle x1="0.7112" y1="-1.2954" x2="1.1684" y2="-0.7112" layer="51"/>
<rectangle x1="-1.1684" y1="-1.2954" x2="-0.7112" y2="-0.7112" layer="51"/>
<rectangle x1="-0.5001" y1="-0.3" x2="0.5001" y2="0.3" layer="35"/>
</package>
</packages>
</library>
<library name="diy-modules">
<description>&lt;b&gt;DIY Modules for Arduino, Raspberry Pi, CubieBoard etc.&lt;/b&gt;
&lt;br&gt;&lt;br&gt;
The library contains a list of symbols and footprints for popular, cheap and easy-to-use electronic modules.&lt;br&gt;
The modules are intend to work with microprocessor-based platforms such as &lt;a href="http://arduino.cc"&gt;Arduino&lt;/a&gt;, &lt;a href="http://raspberrypi.org/"&gt;Raspberry Pi&lt;/a&gt;, &lt;a href="http://cubieboard.org/"&gt;CubieBoard&lt;/a&gt;, &lt;a href="http://beagleboard.org/"&gt;BeagleBone&lt;/a&gt; and many others. There are many manufacturers of the modules in the world. Almost all of them can be bought on &lt;a href="ebay.com"&gt;ebay.com&lt;/a&gt;.&lt;br&gt;
&lt;br&gt;
By using this library, you can design a PCB for devices created with usage of modules. Even if you do not need to create PCB design, you can also use the library to quickly document your work by drawing schematics of devices built by you.&lt;br&gt;
&lt;br&gt;
The latest version, examples, photos and much more can be found at: &lt;b&gt;&lt;a href="http://diymodules.org/eagle"&gt;diymodules.org/eagle&lt;/a&gt;&lt;/b&gt;&lt;br&gt;&lt;br&gt;
Comments, suggestions and bug reports please send to: &lt;b&gt;&lt;a href="mailto:eagle@diymodules.org"&gt;eagle@diymodules.org&lt;/b&gt;&lt;/a&gt;&lt;br&gt;&lt;br&gt;
&lt;i&gt;Version: 1.8.0 (2017-Jul-02)&lt;/i&gt;&lt;br&gt;
&lt;i&gt;Created by: Miroslaw Brudnowski&lt;/i&gt;&lt;br&gt;&lt;br&gt;
&lt;i&gt;Released under the Creative Commons Attribution 4.0 International License: &lt;a href="http://creativecommons.org/licenses/by/4.0"&gt;http://creativecommons.org/licenses/by/4.0&lt;/a&gt;&lt;/i&gt;
&lt;br&gt;&lt;br&gt;
&lt;center&gt;
&lt;a href="http://diymodules.org/eagle"&gt;&lt;img src="http://www.diymodules.org/img/diymodules-lbr-image.php?v=1.8.0" alt="DIYmodules.org"&gt;&lt;/a&gt;
&lt;/center&gt;</description>
<packages>
<package name="ARDUINO-PRO-MINI">
<description>&lt;b&gt;Arduino Pro Mini&lt;/b&gt;</description>
<pad name="J6.12" x="15.24" y="7.62" drill="1"/>
<pad name="J6.11" x="12.7" y="7.62" drill="1"/>
<pad name="J6.10" x="10.16" y="7.62" drill="1"/>
<pad name="J6.9" x="7.62" y="7.62" drill="1"/>
<pad name="J6.8" x="5.08" y="7.62" drill="1"/>
<pad name="J6.7" x="2.54" y="7.62" drill="1"/>
<pad name="J6.6" x="0" y="7.62" drill="1"/>
<pad name="J6.5" x="-2.54" y="7.62" drill="1"/>
<pad name="J6.4" x="-5.08" y="7.62" drill="1"/>
<pad name="J6.3" x="-7.62" y="7.62" drill="1"/>
<pad name="J6.2" x="-10.16" y="7.62" drill="1"/>
<pad name="J6.1" x="-12.7" y="7.62" drill="1"/>
<pad name="J3.3" x="15.24" y="5.08" drill="1"/>
<pad name="J3.2" x="15.24" y="2.54" drill="1"/>
<pad name="J3.1" x="15.24" y="0" drill="1"/>
<pad name="J1.1" x="-15.24" y="6.35" drill="1"/>
<pad name="J1.2" x="-15.24" y="3.81" drill="1"/>
<pad name="J1.3" x="-15.24" y="1.27" drill="1"/>
<pad name="J1.4" x="-15.24" y="-1.27" drill="1"/>
<pad name="J1.5" x="-15.24" y="-3.81" drill="1"/>
<pad name="J1.6" x="-15.24" y="-6.35" drill="1"/>
<pad name="J2.2" x="-3.81" y="5.08" drill="1"/>
<pad name="J2.1" x="-1.27" y="5.08" drill="1"/>
<wire x1="16.51" y1="8.255" x2="15.875" y2="8.89" width="0.127" layer="21"/>
<wire x1="14.605" y1="8.89" x2="13.97" y2="8.255" width="0.127" layer="21"/>
<wire x1="12.065" y1="8.89" x2="11.43" y2="8.255" width="0.127" layer="21"/>
<wire x1="11.43" y1="8.255" x2="10.795" y2="8.89" width="0.127" layer="21"/>
<wire x1="8.89" y1="8.255" x2="8.255" y2="8.89" width="0.127" layer="21"/>
<wire x1="6.985" y1="8.89" x2="6.35" y2="8.255" width="0.127" layer="21"/>
<wire x1="6.35" y1="8.255" x2="5.715" y2="8.89" width="0.127" layer="21"/>
<wire x1="4.445" y1="8.89" x2="3.81" y2="8.255" width="0.127" layer="21"/>
<wire x1="3.81" y1="8.255" x2="3.175" y2="8.89" width="0.127" layer="21"/>
<wire x1="1.905" y1="8.89" x2="1.27" y2="8.255" width="0.127" layer="21"/>
<wire x1="1.27" y1="8.255" x2="0.635" y2="8.89" width="0.127" layer="21"/>
<wire x1="-0.635" y1="8.89" x2="-1.27" y2="8.255" width="0.127" layer="21"/>
<wire x1="-1.27" y1="8.255" x2="-1.905" y2="8.89" width="0.127" layer="21"/>
<wire x1="-3.175" y1="8.89" x2="-3.81" y2="8.255" width="0.127" layer="21"/>
<wire x1="-3.81" y1="8.255" x2="-4.445" y2="8.89" width="0.127" layer="21"/>
<wire x1="-5.715" y1="8.89" x2="-6.35" y2="8.255" width="0.127" layer="21"/>
<wire x1="-8.255" y1="8.89" x2="-8.89" y2="8.255" width="0.127" layer="21"/>
<wire x1="-8.89" y1="8.255" x2="-9.525" y2="8.89" width="0.127" layer="21"/>
<wire x1="-10.795" y1="8.89" x2="-11.43" y2="8.255" width="0.127" layer="21"/>
<wire x1="-11.43" y1="8.255" x2="-12.065" y2="8.89" width="0.127" layer="21"/>
<wire x1="-13.335" y1="8.89" x2="-13.97" y2="8.255" width="0.127" layer="21"/>
<wire x1="-13.97" y1="8.255" x2="-13.97" y2="6.985" width="0.127" layer="21"/>
<wire x1="-13.97" y1="6.985" x2="-13.335" y2="6.35" width="0.127" layer="21"/>
<wire x1="-13.335" y1="6.35" x2="-12.065" y2="6.35" width="0.127" layer="21"/>
<wire x1="-12.065" y1="6.35" x2="-11.43" y2="6.985" width="0.127" layer="21"/>
<wire x1="-11.43" y1="6.985" x2="-10.795" y2="6.35" width="0.127" layer="21"/>
<wire x1="-10.795" y1="6.35" x2="-9.525" y2="6.35" width="0.127" layer="21"/>
<wire x1="-9.525" y1="6.35" x2="-8.89" y2="6.985" width="0.127" layer="21"/>
<wire x1="-8.89" y1="6.985" x2="-8.255" y2="6.35" width="0.127" layer="21"/>
<wire x1="-8.255" y1="6.35" x2="-6.985" y2="6.35" width="0.127" layer="21"/>
<wire x1="-6.985" y1="6.35" x2="-6.35" y2="6.985" width="0.127" layer="21"/>
<wire x1="-6.35" y1="6.985" x2="-5.715" y2="6.35" width="0.127" layer="21"/>
<wire x1="-5.715" y1="6.35" x2="-4.445" y2="6.35" width="0.127" layer="21"/>
<wire x1="-4.445" y1="6.35" x2="-3.81" y2="6.985" width="0.127" layer="21"/>
<wire x1="-3.81" y1="6.985" x2="-3.175" y2="6.35" width="0.127" layer="21"/>
<wire x1="-3.175" y1="6.35" x2="-1.905" y2="6.35" width="0.127" layer="21"/>
<wire x1="-1.905" y1="6.35" x2="-1.27" y2="6.985" width="0.127" layer="21"/>
<wire x1="-1.27" y1="6.985" x2="-0.635" y2="6.35" width="0.127" layer="21"/>
<wire x1="-0.635" y1="6.35" x2="0.635" y2="6.35" width="0.127" layer="21"/>
<wire x1="0.635" y1="6.35" x2="1.27" y2="6.985" width="0.127" layer="21"/>
<wire x1="1.27" y1="6.985" x2="1.905" y2="6.35" width="0.127" layer="21"/>
<wire x1="1.905" y1="6.35" x2="3.175" y2="6.35" width="0.127" layer="21"/>
<wire x1="3.175" y1="6.35" x2="3.81" y2="6.985" width="0.127" layer="21"/>
<wire x1="3.81" y1="6.985" x2="4.445" y2="6.35" width="0.127" layer="21"/>
<wire x1="4.445" y1="6.35" x2="5.715" y2="6.35" width="0.127" layer="21"/>
<wire x1="5.715" y1="6.35" x2="6.35" y2="6.985" width="0.127" layer="21"/>
<wire x1="6.35" y1="6.985" x2="6.985" y2="6.35" width="0.127" layer="21"/>
<wire x1="6.985" y1="6.35" x2="8.255" y2="6.35" width="0.127" layer="21"/>
<wire x1="8.255" y1="6.35" x2="8.89" y2="6.985" width="0.127" layer="21"/>
<wire x1="8.89" y1="6.985" x2="9.525" y2="6.35" width="0.127" layer="21"/>
<wire x1="9.525" y1="6.35" x2="10.795" y2="6.35" width="0.127" layer="21"/>
<wire x1="10.795" y1="6.35" x2="11.43" y2="6.985" width="0.127" layer="21"/>
<wire x1="11.43" y1="6.985" x2="12.065" y2="6.35" width="0.127" layer="21"/>
<wire x1="12.065" y1="6.35" x2="13.335" y2="6.35" width="0.127" layer="21"/>
<wire x1="13.335" y1="6.35" x2="13.97" y2="6.985" width="0.127" layer="21"/>
<wire x1="13.97" y1="6.985" x2="14.605" y2="6.35" width="0.127" layer="21"/>
<wire x1="14.605" y1="6.35" x2="15.875" y2="6.35" width="0.127" layer="21"/>
<wire x1="15.875" y1="6.35" x2="16.51" y2="6.985" width="0.127" layer="21"/>
<pad name="J7.1" x="15.24" y="-7.62" drill="1"/>
<pad name="J7.2" x="12.7" y="-7.62" drill="1"/>
<pad name="J7.3" x="10.16" y="-7.62" drill="1"/>
<pad name="J7.4" x="7.62" y="-7.62" drill="1"/>
<pad name="J7.5" x="5.08" y="-7.62" drill="1"/>
<pad name="J7.6" x="2.54" y="-7.62" drill="1"/>
<pad name="J7.8" x="-2.54" y="-7.62" drill="1"/>
<pad name="J7.9" x="-5.08" y="-7.62" drill="1"/>
<pad name="J7.11" x="-10.16" y="-7.62" drill="1"/>
<pad name="J7.12" x="-12.7" y="-7.62" drill="1"/>
<wire x1="16.51" y1="-6.985" x2="15.875" y2="-6.35" width="0.127" layer="21"/>
<wire x1="-13.335" y1="-6.35" x2="-13.97" y2="-6.985" width="0.127" layer="21"/>
<wire x1="-13.97" y1="-6.985" x2="-13.97" y2="-8.255" width="0.127" layer="21"/>
<wire x1="15.875" y1="-8.89" x2="16.51" y2="-8.255" width="0.127" layer="21"/>
<wire x1="-14.605" y1="7.62" x2="-15.875" y2="7.62" width="0.127" layer="21"/>
<wire x1="-15.875" y1="7.62" x2="-16.51" y2="6.985" width="0.127" layer="21"/>
<wire x1="-16.51" y1="5.715" x2="-15.875" y2="5.08" width="0.127" layer="21"/>
<wire x1="-15.875" y1="5.08" x2="-16.51" y2="4.445" width="0.127" layer="21"/>
<wire x1="-16.51" y1="3.175" x2="-15.875" y2="2.54" width="0.127" layer="21"/>
<wire x1="-15.875" y1="2.54" x2="-16.51" y2="1.905" width="0.127" layer="21"/>
<wire x1="-16.51" y1="0.635" x2="-15.875" y2="0" width="0.127" layer="21"/>
<wire x1="-15.875" y1="0" x2="-16.51" y2="-0.635" width="0.127" layer="21"/>
<wire x1="-16.51" y1="-1.905" x2="-15.875" y2="-2.54" width="0.127" layer="21"/>
<wire x1="-15.875" y1="-2.54" x2="-16.51" y2="-3.175" width="0.127" layer="21"/>
<wire x1="-16.51" y1="-4.445" x2="-15.875" y2="-5.08" width="0.127" layer="21"/>
<wire x1="-15.875" y1="-5.08" x2="-16.51" y2="-5.715" width="0.127" layer="21"/>
<wire x1="-16.51" y1="-6.985" x2="-15.875" y2="-7.62" width="0.127" layer="21"/>
<wire x1="-15.875" y1="-7.62" x2="-14.605" y2="-7.62" width="0.127" layer="21"/>
<wire x1="-14.605" y1="-7.62" x2="-13.97" y2="-6.985" width="0.127" layer="21"/>
<wire x1="-13.97" y1="-6.985" x2="-13.97" y2="-5.715" width="0.127" layer="21"/>
<wire x1="-13.97" y1="-5.715" x2="-14.605" y2="-5.08" width="0.127" layer="21"/>
<wire x1="-14.605" y1="-5.08" x2="-13.97" y2="-4.445" width="0.127" layer="21"/>
<wire x1="-13.97" y1="-4.445" x2="-13.97" y2="-3.175" width="0.127" layer="21"/>
<wire x1="-13.97" y1="-3.175" x2="-14.605" y2="-2.54" width="0.127" layer="21"/>
<wire x1="-14.605" y1="-2.54" x2="-13.97" y2="-1.905" width="0.127" layer="21"/>
<wire x1="-13.97" y1="-1.905" x2="-13.97" y2="-0.635" width="0.127" layer="21"/>
<wire x1="-13.97" y1="-0.635" x2="-14.605" y2="0" width="0.127" layer="21"/>
<wire x1="-14.605" y1="0" x2="-13.97" y2="0.635" width="0.127" layer="21"/>
<wire x1="-13.97" y1="0.635" x2="-13.97" y2="1.905" width="0.127" layer="21"/>
<wire x1="-13.97" y1="1.905" x2="-14.605" y2="2.54" width="0.127" layer="21"/>
<wire x1="-14.605" y1="2.54" x2="-13.97" y2="3.175" width="0.127" layer="21"/>
<wire x1="-13.97" y1="3.175" x2="-13.97" y2="4.445" width="0.127" layer="21"/>
<wire x1="-13.97" y1="4.445" x2="-14.605" y2="5.08" width="0.127" layer="21"/>
<wire x1="-14.605" y1="5.08" x2="-13.97" y2="5.715" width="0.127" layer="21"/>
<wire x1="-13.97" y1="5.715" x2="-13.97" y2="6.985" width="0.127" layer="21"/>
<wire x1="-13.97" y1="6.985" x2="-14.605" y2="7.62" width="0.127" layer="21"/>
<wire x1="-5.08" y1="5.715" x2="-4.445" y2="6.35" width="0.127" layer="21"/>
<wire x1="-4.445" y1="6.35" x2="-3.175" y2="6.35" width="0.127" layer="21"/>
<wire x1="-3.175" y1="6.35" x2="-2.54" y2="5.715" width="0.127" layer="21"/>
<wire x1="-2.54" y1="5.715" x2="-1.905" y2="6.35" width="0.127" layer="21"/>
<wire x1="-1.905" y1="6.35" x2="-0.635" y2="6.35" width="0.127" layer="21"/>
<wire x1="-0.635" y1="6.35" x2="0" y2="5.715" width="0.127" layer="21"/>
<wire x1="0" y1="5.715" x2="0" y2="4.445" width="0.127" layer="21"/>
<wire x1="0" y1="4.445" x2="-0.635" y2="3.81" width="0.127" layer="21"/>
<wire x1="-0.635" y1="3.81" x2="-1.905" y2="3.81" width="0.127" layer="21"/>
<wire x1="-1.905" y1="3.81" x2="-2.54" y2="4.445" width="0.127" layer="21"/>
<wire x1="-2.54" y1="4.445" x2="-3.175" y2="3.81" width="0.127" layer="21"/>
<wire x1="-3.175" y1="3.81" x2="-4.445" y2="3.81" width="0.127" layer="21"/>
<wire x1="-4.445" y1="3.81" x2="-5.08" y2="4.445" width="0.127" layer="21"/>
<wire x1="-5.08" y1="4.445" x2="-5.08" y2="5.715" width="0.127" layer="21"/>
<wire x1="15.875" y1="6.35" x2="16.51" y2="5.715" width="0.127" layer="21"/>
<wire x1="16.51" y1="4.445" x2="15.875" y2="3.81" width="0.127" layer="21"/>
<wire x1="15.875" y1="3.81" x2="16.51" y2="3.175" width="0.127" layer="21"/>
<wire x1="16.51" y1="1.905" x2="15.875" y2="1.27" width="0.127" layer="21"/>
<wire x1="15.875" y1="1.27" x2="16.51" y2="0.635" width="0.127" layer="21"/>
<wire x1="16.51" y1="-0.635" x2="15.875" y2="-1.27" width="0.127" layer="21"/>
<wire x1="15.875" y1="-1.27" x2="14.605" y2="-1.27" width="0.127" layer="21"/>
<wire x1="14.605" y1="-1.27" x2="13.97" y2="-0.635" width="0.127" layer="21"/>
<wire x1="13.97" y1="-0.635" x2="13.97" y2="0.635" width="0.127" layer="21"/>
<wire x1="13.97" y1="0.635" x2="14.605" y2="1.27" width="0.127" layer="21"/>
<wire x1="14.605" y1="1.27" x2="13.97" y2="1.905" width="0.127" layer="21"/>
<wire x1="13.97" y1="1.905" x2="13.97" y2="3.175" width="0.127" layer="21"/>
<wire x1="13.97" y1="3.175" x2="14.605" y2="3.81" width="0.127" layer="21"/>
<wire x1="14.605" y1="3.81" x2="13.97" y2="4.445" width="0.127" layer="21"/>
<wire x1="13.97" y1="4.445" x2="13.97" y2="5.715" width="0.127" layer="21"/>
<wire x1="13.97" y1="5.715" x2="14.605" y2="6.35" width="0.127" layer="21"/>
<wire x1="-13.335" y1="-8.89" x2="-13.97" y2="-8.255" width="0.127" layer="21"/>
<pad name="J7.10" x="-7.62" y="-7.62" drill="1"/>
<pad name="J7.7" x="0" y="-7.62" drill="1"/>
<wire x1="16.51" y1="8.89" x2="13.335" y2="8.89" width="0.127" layer="21"/>
<wire x1="13.335" y1="8.89" x2="9.525" y2="8.89" width="0.127" layer="21"/>
<wire x1="9.525" y1="8.89" x2="-6.985" y2="8.89" width="0.127" layer="21"/>
<wire x1="-6.985" y1="8.89" x2="-16.51" y2="8.89" width="0.127" layer="21"/>
<wire x1="-16.51" y1="-8.89" x2="-12.065" y2="-8.89" width="0.127" layer="21"/>
<wire x1="-12.065" y1="-8.89" x2="-10.795" y2="-8.89" width="0.127" layer="21"/>
<wire x1="-10.795" y1="-8.89" x2="-9.525" y2="-8.89" width="0.127" layer="21"/>
<wire x1="-9.525" y1="-8.89" x2="-8.255" y2="-8.89" width="0.127" layer="21"/>
<wire x1="-8.255" y1="-8.89" x2="-6.985" y2="-8.89" width="0.127" layer="21"/>
<wire x1="-6.985" y1="-8.89" x2="-5.715" y2="-8.89" width="0.127" layer="21"/>
<wire x1="-5.715" y1="-8.89" x2="-4.445" y2="-8.89" width="0.127" layer="21"/>
<wire x1="-4.445" y1="-8.89" x2="-3.175" y2="-8.89" width="0.127" layer="21"/>
<wire x1="-3.175" y1="-8.89" x2="-1.905" y2="-8.89" width="0.127" layer="21"/>
<wire x1="-1.905" y1="-8.89" x2="-0.635" y2="-8.89" width="0.127" layer="21"/>
<wire x1="-0.635" y1="-8.89" x2="0.635" y2="-8.89" width="0.127" layer="21"/>
<wire x1="0.635" y1="-8.89" x2="1.905" y2="-8.89" width="0.127" layer="21"/>
<wire x1="1.905" y1="-8.89" x2="3.175" y2="-8.89" width="0.127" layer="21"/>
<wire x1="3.175" y1="-8.89" x2="4.445" y2="-8.89" width="0.127" layer="21"/>
<wire x1="4.445" y1="-8.89" x2="5.715" y2="-8.89" width="0.127" layer="21"/>
<wire x1="5.715" y1="-8.89" x2="6.985" y2="-8.89" width="0.127" layer="21"/>
<wire x1="6.985" y1="-8.89" x2="8.255" y2="-8.89" width="0.127" layer="21"/>
<wire x1="8.255" y1="-8.89" x2="9.525" y2="-8.89" width="0.127" layer="21"/>
<wire x1="9.525" y1="-8.89" x2="10.795" y2="-8.89" width="0.127" layer="21"/>
<wire x1="10.795" y1="-8.89" x2="12.065" y2="-8.89" width="0.127" layer="21"/>
<wire x1="12.065" y1="-8.89" x2="13.335" y2="-8.89" width="0.127" layer="21"/>
<wire x1="13.335" y1="-8.89" x2="14.605" y2="-8.89" width="0.127" layer="21"/>
<wire x1="14.605" y1="-8.89" x2="16.51" y2="-8.89" width="0.127" layer="21"/>
<wire x1="-16.51" y1="8.89" x2="-16.51" y2="-8.89" width="0.127" layer="21"/>
<wire x1="16.51" y1="-8.89" x2="16.51" y2="8.89" width="0.127" layer="21"/>
<wire x1="-6.35" y1="8.255" x2="-6.985" y2="8.89" width="0.127" layer="21"/>
<wire x1="13.97" y1="8.255" x2="13.335" y2="8.89" width="0.127" layer="21"/>
<wire x1="8.89" y1="8.255" x2="9.525" y2="8.89" width="0.127" layer="21"/>
<wire x1="-12.065" y1="-8.89" x2="-11.43" y2="-8.255" width="0.127" layer="21"/>
<wire x1="-11.43" y1="-8.255" x2="-10.795" y2="-8.89" width="0.127" layer="21"/>
<wire x1="-9.525" y1="-8.89" x2="-8.89" y2="-8.255" width="0.127" layer="21"/>
<wire x1="-8.89" y1="-8.255" x2="-8.255" y2="-8.89" width="0.127" layer="21"/>
<wire x1="-6.985" y1="-8.89" x2="-6.35" y2="-8.255" width="0.127" layer="21"/>
<wire x1="-6.35" y1="-8.255" x2="-5.715" y2="-8.89" width="0.127" layer="21"/>
<wire x1="-4.445" y1="-8.89" x2="-3.81" y2="-8.255" width="0.127" layer="21"/>
<wire x1="-3.81" y1="-8.255" x2="-3.175" y2="-8.89" width="0.127" layer="21"/>
<wire x1="-1.905" y1="-8.89" x2="-1.27" y2="-8.255" width="0.127" layer="21"/>
<wire x1="-1.27" y1="-8.255" x2="-0.635" y2="-8.89" width="0.127" layer="21"/>
<wire x1="0.635" y1="-8.89" x2="1.27" y2="-8.255" width="0.127" layer="21"/>
<wire x1="1.27" y1="-8.255" x2="1.905" y2="-8.89" width="0.127" layer="21"/>
<wire x1="3.175" y1="-8.89" x2="3.81" y2="-8.255" width="0.127" layer="21"/>
<wire x1="3.81" y1="-8.255" x2="4.445" y2="-8.89" width="0.127" layer="21"/>
<wire x1="5.715" y1="-8.89" x2="6.35" y2="-8.255" width="0.127" layer="21"/>
<wire x1="6.35" y1="-8.255" x2="6.985" y2="-8.89" width="0.127" layer="21"/>
<wire x1="8.255" y1="-8.89" x2="8.89" y2="-8.255" width="0.127" layer="21"/>
<wire x1="8.89" y1="-8.255" x2="9.525" y2="-8.89" width="0.127" layer="21"/>
<wire x1="10.795" y1="-8.89" x2="11.43" y2="-8.255" width="0.127" layer="21"/>
<wire x1="11.43" y1="-8.255" x2="12.065" y2="-8.89" width="0.127" layer="21"/>
<wire x1="-13.335" y1="-6.35" x2="-12.065" y2="-6.35" width="0.127" layer="21"/>
<wire x1="-12.065" y1="-6.35" x2="-11.43" y2="-6.985" width="0.127" layer="21"/>
<wire x1="-11.43" y1="-6.985" x2="-10.795" y2="-6.35" width="0.127" layer="21"/>
<wire x1="-10.795" y1="-6.35" x2="-9.525" y2="-6.35" width="0.127" layer="21"/>
<wire x1="-9.525" y1="-6.35" x2="-8.89" y2="-6.985" width="0.127" layer="21"/>
<wire x1="-8.89" y1="-6.985" x2="-8.255" y2="-6.35" width="0.127" layer="21"/>
<wire x1="-8.255" y1="-6.35" x2="-6.985" y2="-6.35" width="0.127" layer="21"/>
<wire x1="-6.985" y1="-6.35" x2="-6.35" y2="-6.985" width="0.127" layer="21"/>
<wire x1="-6.35" y1="-6.985" x2="-5.715" y2="-6.35" width="0.127" layer="21"/>
<wire x1="-5.715" y1="-6.35" x2="-4.445" y2="-6.35" width="0.127" layer="21"/>
<wire x1="-4.445" y1="-6.35" x2="-3.81" y2="-6.985" width="0.127" layer="21"/>
<wire x1="-3.81" y1="-6.985" x2="-3.175" y2="-6.35" width="0.127" layer="21"/>
<wire x1="-3.175" y1="-6.35" x2="-1.905" y2="-6.35" width="0.127" layer="21"/>
<wire x1="-1.905" y1="-6.35" x2="-1.27" y2="-6.985" width="0.127" layer="21"/>
<wire x1="-1.27" y1="-6.985" x2="-0.635" y2="-6.35" width="0.127" layer="21"/>
<wire x1="-0.635" y1="-6.35" x2="0.635" y2="-6.35" width="0.127" layer="21"/>
<wire x1="0.635" y1="-6.35" x2="1.27" y2="-6.985" width="0.127" layer="21"/>
<wire x1="1.27" y1="-6.985" x2="1.905" y2="-6.35" width="0.127" layer="21"/>
<wire x1="1.905" y1="-6.35" x2="3.175" y2="-6.35" width="0.127" layer="21"/>
<wire x1="3.175" y1="-6.35" x2="3.81" y2="-6.985" width="0.127" layer="21"/>
<wire x1="3.81" y1="-6.985" x2="4.445" y2="-6.35" width="0.127" layer="21"/>
<wire x1="4.445" y1="-6.35" x2="5.715" y2="-6.35" width="0.127" layer="21"/>
<wire x1="5.715" y1="-6.35" x2="6.35" y2="-6.985" width="0.127" layer="21"/>
<wire x1="6.35" y1="-6.985" x2="6.985" y2="-6.35" width="0.127" layer="21"/>
<wire x1="6.985" y1="-6.35" x2="8.255" y2="-6.35" width="0.127" layer="21"/>
<wire x1="8.255" y1="-6.35" x2="8.89" y2="-6.985" width="0.127" layer="21"/>
<wire x1="8.89" y1="-6.985" x2="9.525" y2="-6.35" width="0.127" layer="21"/>
<wire x1="9.525" y1="-6.35" x2="10.795" y2="-6.35" width="0.127" layer="21"/>
<wire x1="10.795" y1="-6.35" x2="11.43" y2="-6.985" width="0.127" layer="21"/>
<wire x1="11.43" y1="-6.985" x2="12.065" y2="-6.35" width="0.127" layer="21"/>
<wire x1="12.065" y1="-6.35" x2="13.335" y2="-6.35" width="0.127" layer="21"/>
<wire x1="13.335" y1="-6.35" x2="13.97" y2="-6.985" width="0.127" layer="21"/>
<wire x1="13.97" y1="-6.985" x2="14.605" y2="-6.35" width="0.127" layer="21"/>
<wire x1="14.605" y1="-6.35" x2="15.875" y2="-6.35" width="0.127" layer="21"/>
<wire x1="14.605" y1="-8.89" x2="13.97" y2="-8.255" width="0.127" layer="21"/>
<wire x1="13.97" y1="-8.255" x2="13.335" y2="-8.89" width="0.127" layer="21"/>
<text x="0" y="10.16" size="1.27" layer="25" align="bottom-center">&gt;NAME</text>
<text x="0" y="-10.16" size="1.27" layer="27" align="top-center">&gt;VALUE</text>
</package>
</packages>
</library>
<library name="Bluetooth HC-05">
<description>Bluetooth HC05 Module. See http://mcuoneclipse.com/2013/02/14/bluetooth-with-the-freedom-board/</description>
<packages>
<package name="BLUETOOTH_SMD">
<description>HC-05</description>
<wire x1="-6.35" y1="4.81" x2="-6.35" y2="13.31" width="0.127" layer="21"/>
<wire x1="-6.35" y1="13.31" x2="6.65" y2="13.31" width="0.127" layer="21"/>
<wire x1="6.65" y1="13.31" x2="6.65" y2="4.81" width="0.127" layer="21"/>
<smd name="1" x="-6.35" y="3.81" dx="2" dy="1" layer="1"/>
<smd name="2" x="-6.35" y="2.31" dx="2" dy="1" layer="1"/>
<smd name="3" x="-6.35" y="0.81" dx="2" dy="1" layer="1"/>
<smd name="4" x="-6.35" y="-0.69" dx="2" dy="1" layer="1"/>
<smd name="5" x="-6.35" y="-2.19" dx="2" dy="1" layer="1"/>
<smd name="6" x="-6.35" y="-3.69" dx="2" dy="1" layer="1"/>
<smd name="7" x="-6.35" y="-5.19" dx="2" dy="1" layer="1"/>
<smd name="8" x="-6.35" y="-6.69" dx="2" dy="1" layer="1"/>
<smd name="9" x="-6.35" y="-8.19" dx="2" dy="1" layer="1"/>
<smd name="10" x="-6.35" y="-9.69" dx="2" dy="1" layer="1"/>
<smd name="11" x="-6.35" y="-11.19" dx="2" dy="1" layer="1"/>
<smd name="12" x="-6.35" y="-12.69" dx="2" dy="1" layer="1"/>
<smd name="13" x="-6.35" y="-14.19" dx="2" dy="1" layer="1"/>
<smd name="22" x="6.65" y="-14.19" dx="2" dy="1" layer="1"/>
<smd name="23" x="6.65" y="-12.69" dx="2" dy="1" layer="1"/>
<smd name="24" x="6.65" y="-11.19" dx="2" dy="1" layer="1"/>
<smd name="25" x="6.65" y="-9.69" dx="2" dy="1" layer="1"/>
<smd name="26" x="6.65" y="-8.19" dx="2" dy="1" layer="1"/>
<smd name="27" x="6.65" y="-6.69" dx="2" dy="1" layer="1"/>
<smd name="28" x="6.65" y="-5.19" dx="2" dy="1" layer="1"/>
<smd name="29" x="6.65" y="-3.69" dx="2" dy="1" layer="1"/>
<smd name="30" x="6.65" y="-2.19" dx="2" dy="1" layer="1"/>
<smd name="31" x="6.65" y="-0.69" dx="2" dy="1" layer="1"/>
<smd name="32" x="6.65" y="0.81" dx="2" dy="1" layer="1"/>
<smd name="33" x="6.65" y="2.31" dx="2" dy="1" layer="1"/>
<smd name="34" x="6.65" y="3.81" dx="2" dy="1" layer="1"/>
<smd name="14" x="-5.1" y="-15.94" dx="1.8" dy="1" layer="1" rot="R90"/>
<smd name="15" x="-3.6" y="-15.94" dx="1.8" dy="1" layer="1" rot="R90"/>
<smd name="16" x="-2.1" y="-15.94" dx="1.8" dy="1" layer="1" rot="R90"/>
<smd name="17" x="-0.6" y="-15.94" dx="1.8" dy="1" layer="1" rot="R90"/>
<smd name="18" x="0.9" y="-15.94" dx="1.8" dy="1" layer="1" rot="R90"/>
<smd name="19" x="2.4" y="-15.94" dx="1.8" dy="1" layer="1" rot="R90"/>
<smd name="20" x="3.9" y="-15.94" dx="1.8" dy="1" layer="1" rot="R90"/>
<smd name="21" x="5.4" y="-15.94" dx="1.8" dy="1" layer="1" rot="R90"/>
<text x="-5.35" y="11.31" size="1.27" layer="25">&gt;name</text>
</package>
</packages>
</library>
<library name="jumper" urn="urn:adsk.eagle:library:252">
<description>&lt;b&gt;Jumpers&lt;/b&gt;&lt;p&gt;
&lt;author&gt;Created by librarian@cadsoft.de&lt;/author&gt;</description>
<packages>
<package name="JP2Q" urn="urn:adsk.eagle:footprint:15392/1" library_version="2">
<description>&lt;b&gt;JUMPER&lt;/b&gt;</description>
<wire x1="-2.54" y1="-2.159" x2="-2.54" y2="2.159" width="0.1524" layer="21"/>
<wire x1="-0.381" y1="2.54" x2="0" y2="2.159" width="0.1524" layer="21"/>
<wire x1="0" y1="2.159" x2="0.381" y2="2.54" width="0.1524" layer="21"/>
<wire x1="0.381" y1="2.54" x2="2.159" y2="2.54" width="0.1524" layer="21"/>
<wire x1="2.54" y1="2.159" x2="2.159" y2="2.54" width="0.1524" layer="21"/>
<wire x1="2.54" y1="2.159" x2="2.54" y2="-2.159" width="0.1524" layer="21"/>
<wire x1="2.54" y1="-2.159" x2="2.159" y2="-2.54" width="0.1524" layer="21"/>
<wire x1="2.159" y1="-2.54" x2="0.381" y2="-2.54" width="0.1524" layer="21"/>
<wire x1="0" y1="-2.159" x2="0.381" y2="-2.54" width="0.1524" layer="21"/>
<wire x1="0" y1="-2.159" x2="-0.381" y2="-2.54" width="0.1524" layer="21"/>
<wire x1="-2.54" y1="2.159" x2="-2.159" y2="2.54" width="0.1524" layer="21"/>
<wire x1="-2.159" y1="2.54" x2="-0.381" y2="2.54" width="0.1524" layer="21"/>
<wire x1="-2.54" y1="-2.159" x2="-2.159" y2="-2.54" width="0.1524" layer="21"/>
<wire x1="-2.159" y1="-2.54" x2="-0.381" y2="-2.54" width="0.1524" layer="21"/>
<pad name="1" x="-1.27" y="-1.27" drill="0.9144" shape="octagon"/>
<pad name="2" x="-1.27" y="1.27" drill="0.9144" shape="octagon"/>
<pad name="3" x="1.27" y="-1.27" drill="0.9144" shape="octagon"/>
<pad name="4" x="1.27" y="1.27" drill="0.9144" shape="octagon"/>
<text x="-1.778" y="-4.191" size="1.27" layer="21" ratio="10">1</text>
<text x="0.762" y="-4.191" size="1.27" layer="21" ratio="10">2</text>
<text x="-2.54" y="3.048" size="1.27" layer="25" ratio="10">&gt;NAME</text>
<text x="4.445" y="-2.54" size="1.27" layer="27" ratio="10" rot="R90">&gt;VALUE</text>
<rectangle x1="-1.5748" y1="0.9652" x2="-0.9652" y2="1.5748" layer="51"/>
<rectangle x1="0.9652" y1="0.9652" x2="1.5748" y2="1.5748" layer="51"/>
<rectangle x1="0.9652" y1="-1.5748" x2="1.5748" y2="-0.9652" layer="51"/>
<rectangle x1="-1.5748" y1="-1.5748" x2="-0.9652" y2="-0.9652" layer="51"/>
</package>
<package name="JP1" urn="urn:adsk.eagle:footprint:15398/1" library_version="2">
<description>&lt;b&gt;JUMPER&lt;/b&gt;</description>
<wire x1="-1.016" y1="0" x2="-1.27" y2="0.254" width="0.1524" layer="21"/>
<wire x1="-1.016" y1="0" x2="-1.27" y2="-0.254" width="0.1524" layer="21"/>
<wire x1="1.016" y1="0" x2="1.27" y2="0.254" width="0.1524" layer="21"/>
<wire x1="1.016" y1="0" x2="1.27" y2="-0.254" width="0.1524" layer="21"/>
<wire x1="1.27" y1="-0.254" x2="1.27" y2="-2.286" width="0.1524" layer="21"/>
<wire x1="1.016" y1="-2.54" x2="1.27" y2="-2.286" width="0.1524" layer="21"/>
<wire x1="1.27" y1="2.286" x2="1.016" y2="2.54" width="0.1524" layer="21"/>
<wire x1="1.27" y1="2.286" x2="1.27" y2="0.254" width="0.1524" layer="21"/>
<wire x1="1.016" y1="2.54" x2="-1.016" y2="2.54" width="0.1524" layer="21"/>
<wire x1="-1.27" y1="2.286" x2="-1.016" y2="2.54" width="0.1524" layer="21"/>
<wire x1="-1.27" y1="2.286" x2="-1.27" y2="0.254" width="0.1524" layer="21"/>
<wire x1="-1.27" y1="-0.254" x2="-1.27" y2="-2.286" width="0.1524" layer="21"/>
<wire x1="-1.016" y1="-2.54" x2="-1.27" y2="-2.286" width="0.1524" layer="21"/>
<wire x1="-1.016" y1="-2.54" x2="1.016" y2="-2.54" width="0.1524" layer="21"/>
<pad name="1" x="0" y="-1.27" drill="0.9144" shape="long"/>
<pad name="2" x="0" y="1.27" drill="0.9144" shape="long"/>
<text x="-1.651" y="-2.54" size="1.27" layer="25" ratio="10" rot="R90">&gt;NAME</text>
<text x="2.921" y="-2.54" size="1.27" layer="27" ratio="10" rot="R90">&gt;VALUE</text>
<rectangle x1="-0.3048" y1="0.9652" x2="0.3048" y2="1.5748" layer="51"/>
<rectangle x1="-0.3048" y1="-1.5748" x2="0.3048" y2="-0.9652" layer="51"/>
</package>
</packages>
<packages3d>
<package3d name="JP2Q" urn="urn:adsk.eagle:package:15450/1" type="box" library_version="2">
<description>JUMPER</description>
<packageinstances>
<packageinstance name="JP2Q"/>
</packageinstances>
</package3d>
<package3d name="JP1" urn="urn:adsk.eagle:package:15455/1" type="box" library_version="2">
<description>JUMPER</description>
<packageinstances>
<packageinstance name="JP1"/>
</packageinstances>
</package3d>
</packages3d>
</library>
</libraries>
<attributes>
</attributes>
<variantdefs>
</variantdefs>
<classes>
<class number="0" name="default" width="0.4826" drill="0">
</class>
</classes>
<designrules name="default">
<description language="de">&lt;b&gt;EAGLE Design Rules&lt;/b&gt;
&lt;p&gt;
Die Standard-Design-Rules sind so gewählt, dass sie für 
die meisten Anwendungen passen. Sollte ihre Platine 
besondere Anforderungen haben, treffen Sie die erforderlichen
Einstellungen hier und speichern die Design Rules unter 
einem neuen Namen ab.</description>
<description language="en">&lt;b&gt;EAGLE Design Rules&lt;/b&gt;
&lt;p&gt;
The default Design Rules have been set to cover
a wide range of applications. Your particular design
may have different requirements, so please make the
necessary adjustments and save your customized
design rules under a new name.</description>
<param name="layerSetup" value="(1*16)"/>
<param name="mtCopper" value="0.035mm 0.035mm 0.035mm 0.035mm 0.035mm 0.035mm 0.035mm 0.035mm 0.035mm 0.035mm 0.035mm 0.035mm 0.035mm 0.035mm 0.035mm 0.035mm"/>
<param name="mtIsolate" value="1.5mm 0.15mm 0.2mm 0.15mm 0.2mm 0.15mm 0.2mm 0.15mm 0.2mm 0.15mm 0.2mm 0.15mm 0.2mm 0.15mm 0.2mm"/>
<param name="mdWireWire" value="6mil"/>
<param name="mdWirePad" value="6mil"/>
<param name="mdWireVia" value="6mil"/>
<param name="mdPadPad" value="6mil"/>
<param name="mdPadVia" value="6mil"/>
<param name="mdViaVia" value="6mil"/>
<param name="mdSmdPad" value="6mil"/>
<param name="mdSmdVia" value="6mil"/>
<param name="mdSmdSmd" value="6mil"/>
<param name="mdViaViaSameLayer" value="6mil"/>
<param name="mnLayersViaInSmd" value="2"/>
<param name="mdCopperDimension" value="40mil"/>
<param name="mdDrill" value="6mil"/>
<param name="mdSmdStop" value="0mil"/>
<param name="msWidth" value="6mil"/>
<param name="msDrill" value="0.35mm"/>
<param name="msMicroVia" value="9.99mm"/>
<param name="msBlindViaRatio" value="0.5"/>
<param name="rvPadTop" value="0.25"/>
<param name="rvPadInner" value="0.25"/>
<param name="rvPadBottom" value="0.25"/>
<param name="rvViaOuter" value="0.25"/>
<param name="rvViaInner" value="0.25"/>
<param name="rvMicroViaOuter" value="0.25"/>
<param name="rvMicroViaInner" value="0.25"/>
<param name="rlMinPadTop" value="10mil"/>
<param name="rlMaxPadTop" value="20mil"/>
<param name="rlMinPadInner" value="10mil"/>
<param name="rlMaxPadInner" value="20mil"/>
<param name="rlMinPadBottom" value="10mil"/>
<param name="rlMaxPadBottom" value="20mil"/>
<param name="rlMinViaOuter" value="8mil"/>
<param name="rlMaxViaOuter" value="20mil"/>
<param name="rlMinViaInner" value="8mil"/>
<param name="rlMaxViaInner" value="20mil"/>
<param name="rlMinMicroViaOuter" value="4mil"/>
<param name="rlMaxMicroViaOuter" value="20mil"/>
<param name="rlMinMicroViaInner" value="4mil"/>
<param name="rlMaxMicroViaInner" value="20mil"/>
<param name="psTop" value="-1"/>
<param name="psBottom" value="-1"/>
<param name="psFirst" value="-1"/>
<param name="psElongationLong" value="100"/>
<param name="psElongationOffset" value="100"/>
<param name="mvStopFrame" value="1"/>
<param name="mvCreamFrame" value="0"/>
<param name="mlMinStopFrame" value="4mil"/>
<param name="mlMaxStopFrame" value="4mil"/>
<param name="mlMinCreamFrame" value="0mil"/>
<param name="mlMaxCreamFrame" value="0mil"/>
<param name="mlViaStopLimit" value="0mil"/>
<param name="srRoundness" value="0"/>
<param name="srMinRoundness" value="0mil"/>
<param name="srMaxRoundness" value="0mil"/>
<param name="slThermalIsolate" value="10mil"/>
<param name="slThermalsForVias" value="0"/>
<param name="dpMaxLengthDifference" value="10mm"/>
<param name="dpGapFactor" value="2.5"/>
<param name="checkAngle" value="0"/>
<param name="checkFont" value="1"/>
<param name="checkRestrict" value="1"/>
<param name="checkStop" value="0"/>
<param name="checkValues" value="0"/>
<param name="checkNames" value="1"/>
<param name="checkWireStubs" value="1"/>
<param name="checkPolygonWidth" value="0"/>
<param name="useDiameter" value="13"/>
<param name="maxErrors" value="50"/>
</designrules>
<autorouter>
<pass name="Default">
<param name="RoutingGrid" value="50mil"/>
<param name="AutoGrid" value="1"/>
<param name="Efforts" value="2"/>
<param name="TopRouterVariant" value="1"/>
<param name="tpViaShape" value="round"/>
<param name="PrefDir.1" value="a"/>
<param name="PrefDir.2" value="0"/>
<param name="PrefDir.3" value="0"/>
<param name="PrefDir.4" value="0"/>
<param name="PrefDir.5" value="0"/>
<param name="PrefDir.6" value="0"/>
<param name="PrefDir.7" value="0"/>
<param name="PrefDir.8" value="0"/>
<param name="PrefDir.9" value="0"/>
<param name="PrefDir.10" value="0"/>
<param name="PrefDir.11" value="0"/>
<param name="PrefDir.12" value="0"/>
<param name="PrefDir.13" value="0"/>
<param name="PrefDir.14" value="0"/>
<param name="PrefDir.15" value="0"/>
<param name="PrefDir.16" value="a"/>
<param name="cfVia" value="8"/>
<param name="cfNonPref" value="5"/>
<param name="cfChangeDir" value="2"/>
<param name="cfOrthStep" value="2"/>
<param name="cfDiagStep" value="3"/>
<param name="cfExtdStep" value="0"/>
<param name="cfBonusStep" value="1"/>
<param name="cfMalusStep" value="1"/>
<param name="cfPadImpact" value="4"/>
<param name="cfSmdImpact" value="4"/>
<param name="cfBusImpact" value="0"/>
<param name="cfHugging" value="3"/>
<param name="cfAvoid" value="4"/>
<param name="cfPolygon" value="10"/>
<param name="cfBase.1" value="0"/>
<param name="cfBase.2" value="1"/>
<param name="cfBase.3" value="1"/>
<param name="cfBase.4" value="1"/>
<param name="cfBase.5" value="1"/>
<param name="cfBase.6" value="1"/>
<param name="cfBase.7" value="1"/>
<param name="cfBase.8" value="1"/>
<param name="cfBase.9" value="1"/>
<param name="cfBase.10" value="1"/>
<param name="cfBase.11" value="1"/>
<param name="cfBase.12" value="1"/>
<param name="cfBase.13" value="1"/>
<param name="cfBase.14" value="1"/>
<param name="cfBase.15" value="1"/>
<param name="cfBase.16" value="0"/>
<param name="mnVias" value="20"/>
<param name="mnSegments" value="9999"/>
<param name="mnExtdSteps" value="9999"/>
<param name="mnRipupLevel" value="10"/>
<param name="mnRipupSteps" value="100"/>
<param name="mnRipupTotal" value="100"/>
</pass>
<pass name="Follow-me" refer="Default" active="yes">
</pass>
<pass name="Busses" refer="Default" active="yes">
<param name="cfNonPref" value="4"/>
<param name="cfBusImpact" value="4"/>
<param name="cfHugging" value="0"/>
<param name="mnVias" value="0"/>
</pass>
<pass name="Route" refer="Default" active="yes">
</pass>
<pass name="Optimize1" refer="Default" active="yes">
<param name="cfVia" value="99"/>
<param name="cfExtdStep" value="10"/>
<param name="cfHugging" value="1"/>
<param name="mnExtdSteps" value="1"/>
<param name="mnRipupLevel" value="0"/>
</pass>
<pass name="Optimize2" refer="Optimize1" active="yes">
<param name="cfNonPref" value="0"/>
<param name="cfChangeDir" value="6"/>
<param name="cfExtdStep" value="0"/>
<param name="cfBonusStep" value="2"/>
<param name="cfMalusStep" value="2"/>
<param name="cfPadImpact" value="2"/>
<param name="cfSmdImpact" value="2"/>
<param name="cfHugging" value="0"/>
</pass>
<pass name="Optimize3" refer="Optimize2" active="yes">
<param name="cfChangeDir" value="8"/>
<param name="cfPadImpact" value="0"/>
<param name="cfSmdImpact" value="0"/>
</pass>
<pass name="Optimize4" refer="Optimize3" active="yes">
<param name="cfChangeDir" value="25"/>
</pass>
</autorouter>
<groups>
<board_group name="ALL"/>
</groups>
<elements>
<element name="C1" library="Clean-Kong" package="C0805" value="1uF" x="8.89" y="25.4" smashed="yes" rot="MR0" grouprefs="ALL">
<attribute name="NAME" x="10.16" y="22.86" size="1.27" layer="26" rot="MR0"/>
<attribute name="VALUE" x="10.16" y="26.67" size="1.27" layer="28" rot="MR0"/>
</element>
<element name="C3" library="eagle-ltspice" library_urn="urn:adsk.eagle:library:217" package="C0805" value="0.1uF" x="30.48" y="38.1" smashed="yes" rot="MR0" grouprefs="ALL">
<attribute name="NAME" x="31.75" y="39.37" size="1.27" layer="26" rot="MR0"/>
<attribute name="SPICEMODEL" value="NONE" x="-6.35" y="-40.64" size="1.778" layer="28" rot="MR0" display="off"/>
<attribute name="SPICEPREFIX" value="C" x="-6.35" y="-40.64" size="1.778" layer="28" rot="MR0" display="off"/>
<attribute name="VALUE" x="31.75" y="35.56" size="1.27" layer="28" rot="MR0"/>
</element>
<element name="C4" library="capacitor-wima" library_urn="urn:adsk.eagle:library:116" package="C2.5-3" value="100uF" x="3.81" y="35.56" smashed="yes" grouprefs="ALL">
<attribute name="NAME" x="0.762" y="33.909" size="1.27" layer="25" ratio="10" rot="R90"/>
<attribute name="VALUE" x="8.128" y="33.909" size="1.27" layer="27" ratio="10" rot="R90"/>
</element>
<element name="G1" library="battery" library_urn="urn:adsk.eagle:library:109" package="AB9V" value="AB9V" x="10.16" y="40.64" smashed="yes" rot="R180" grouprefs="ALL">
<attribute name="NAME" x="13.97" y="43.18" size="1.27" layer="25" ratio="10" rot="R270"/>
<attribute name="VALUE" x="5.715" y="43.18" size="1.27" layer="27" ratio="10" rot="R270"/>
</element>
<element name="IC1" library="linear" library_urn="urn:adsk.eagle:library:262" package="SOT23" value="LM50" x="8.89" y="6.35" smashed="yes" rot="MR0" grouprefs="ALL">
<attribute name="NAME" x="10.795" y="8.255" size="1.27" layer="26" rot="MR0"/>
<attribute name="VALUE" x="9.525" y="3.175" size="1.27" layer="28" rot="MR0"/>
</element>
<element name="M1" library="diy-modules" package="ARDUINO-PRO-MINI" value="ARDUINO-PRO-MINI-5.0V" x="8.89" y="16.51" smashed="yes" rot="R90" grouprefs="ALL">
<attribute name="NAME" x="-1.27" y="16.51" size="1.27" layer="25" rot="R90" align="bottom-center"/>
<attribute name="VALUE" x="12.7" y="17.78" size="1.27" layer="27" rot="R90" align="top-center"/>
</element>
<element name="R1" library="eagle-ltspice" library_urn="urn:adsk.eagle:library:217" package="R0805" value="10K" x="8.89" y="12.7" smashed="yes" rot="MR180" grouprefs="ALL">
<attribute name="NAME" x="8.255" y="11.43" size="1.27" layer="26" rot="MR180"/>
<attribute name="SPICEMODEL" value="NONE" x="25.4" y="93.98" size="1.778" layer="28" rot="MR180" display="off"/>
<attribute name="SPICEPREFIX" value="R" x="25.4" y="93.98" size="1.778" layer="28" rot="MR180" display="off"/>
<attribute name="VALUE" x="8.255" y="15.24" size="1.27" layer="28" rot="MR180"/>
</element>
<element name="R4" library="eagle-ltspice" library_urn="urn:adsk.eagle:library:217" package="R0805" value="22k" x="20.32" y="38.1" smashed="yes" rot="MR0" grouprefs="ALL">
<attribute name="NAME" x="20.955" y="35.56" size="1.27" layer="26" rot="MR0"/>
<attribute name="SPICEMODEL" value="NONE" x="-1.27" y="-43.18" size="1.778" layer="28" rot="MR0" display="off"/>
<attribute name="SPICEPREFIX" value="R" x="-1.27" y="-43.18" size="1.778" layer="28" rot="MR0" display="off"/>
<attribute name="VALUE" x="20.955" y="39.37" size="1.27" layer="28" rot="MR0"/>
</element>
<element name="R5" library="eagle-ltspice" library_urn="urn:adsk.eagle:library:217" package="R0805" value="22k" x="8.89" y="19.05" smashed="yes" rot="MR180" grouprefs="ALL">
<attribute name="NAME" x="8.255" y="17.78" size="1.27" layer="26" rot="MR180"/>
<attribute name="SPICEMODEL" value="NONE" x="35.56" y="100.33" size="1.778" layer="28" rot="MR180" display="off"/>
<attribute name="SPICEPREFIX" value="R" x="35.56" y="100.33" size="1.778" layer="28" rot="MR180" display="off"/>
<attribute name="VALUE" x="8.255" y="21.59" size="1.27" layer="28" rot="MR180"/>
</element>
<element name="U$2" library="Clean-Kong" package="BOARD_A4988" value="BOARD_A4988" x="15.24" y="48.26" smashed="yes" rot="R270" grouprefs="ALL">
<attribute name="NAME" x="26.67" y="43.18" size="1.27" layer="25" rot="R270"/>
</element>
<element name="U1" library="Bluetooth HC-05" package="BLUETOOTH_SMD" value="HC_05" x="26.67" y="17.78" smashed="yes" grouprefs="ALL">
<attribute name="NAME" x="21.32" y="29.09" size="1.27" layer="25"/>
</element>
<element name="JP1" library="jumper" library_urn="urn:adsk.eagle:library:252" package="JP2Q" package3d_urn="urn:adsk.eagle:package:15450/1" value="" x="2.54" y="46.99" smashed="yes" grouprefs="ALL">
<attribute name="NAME" x="0" y="50.038" size="1.27" layer="25" ratio="10"/>
<attribute name="POPULARITY" value="2" x="2.54" y="46.99" size="1.778" layer="27" display="off"/>
<attribute name="VALUE" x="6.985" y="44.45" size="1.27" layer="27" ratio="10" rot="R90"/>
</element>
<element name="JP2" library="jumper" library_urn="urn:adsk.eagle:library:252" package="JP1" package3d_urn="urn:adsk.eagle:package:15455/1" value="" x="2.54" y="40.64" smashed="yes" rot="R90" grouprefs="ALL">
<attribute name="NAME" x="5.08" y="38.989" size="1.27" layer="25" ratio="10" rot="R180"/>
<attribute name="POPULARITY" value="15" x="2.54" y="40.64" size="1.778" layer="27" rot="R90" display="off"/>
<attribute name="VALUE" x="5.08" y="43.561" size="1.27" layer="27" ratio="10" rot="R180"/>
</element>
</elements>
<signals>
<signal name="GND.1">
<contactref element="M1" pad="J7.9"/>
</signal>
<signal name="GND">
<contactref element="U$2" pad="GND"/>
<contactref element="U$2" pad="GNDMOT"/>
<contactref element="G1" pad="-"/>
<contactref element="C1" pad="2"/>
<contactref element="U1" pad="13"/>
<contactref element="R1" pad="2"/>
<contactref element="U1" pad="22"/>
<contactref element="C4" pad="2"/>
<contactref element="R5" pad="2"/>
<contactref element="M1" pad="J6.2"/>
<contactref element="IC1" pad="1"/>
<contactref element="U1" pad="21"/>
<contactref element="JP2" pad="1"/>
<wire x1="32.385" y1="2.8575" x2="32.385" y2="1.905" width="0.4826" layer="1"/>
<wire x1="33.02" y1="3.4925" x2="32.385" y2="2.8575" width="0.4826" layer="1"/>
<wire x1="32.385" y1="1.905" x2="32.07" y2="1.84" width="0.4826" layer="1"/>
<wire x1="33.02" y1="3.4925" x2="33.32" y2="3.59" width="0.4826" layer="1"/>
<wire x1="32.7025" y1="3.4925" x2="20.32" y2="3.4925" width="0.4826" layer="1"/>
<wire x1="32.7025" y1="3.4925" x2="33.32" y2="3.59" width="0.4826" layer="1"/>
<wire x1="8.89" y1="4.445" x2="9.525" y2="5.08" width="0.4826" layer="16"/>
<wire x1="8.89" y1="4.1275" x2="8.89" y2="4.445" width="0.4826" layer="16"/>
<wire x1="3.4925" y1="4.1275" x2="6.985" y2="4.1275" width="0.4826" layer="16"/>
<wire x1="6.985" y1="4.1275" x2="8.89" y2="4.1275" width="0.4826" layer="16"/>
<wire x1="1.27" y1="6.35" x2="3.4925" y2="4.1275" width="0.4826" layer="16"/>
<wire x1="9.525" y1="5.08" x2="9.84" y2="5.25" width="0.4826" layer="16"/>
<wire x1="9.525" y1="10.795" x2="9.525" y2="12.7" width="0.4826" layer="16"/>
<wire x1="6.985" y1="8.255" x2="9.525" y2="10.795" width="0.4826" layer="16"/>
<wire x1="6.985" y1="4.1275" x2="6.985" y2="8.255" width="0.4826" layer="16"/>
<wire x1="9.525" y1="12.7" x2="9.84" y2="12.7" width="0.4826" layer="16"/>
<wire x1="18.0975" y1="3.4925" x2="20.32" y2="3.4925" width="0.4826" layer="1"/>
<wire x1="17.145" y1="2.54" x2="18.0975" y2="3.4925" width="0.4826" layer="1"/>
<wire x1="5.08" y1="2.54" x2="17.145" y2="2.54" width="0.4826" layer="1"/>
<wire x1="1.27" y1="6.35" x2="5.08" y2="2.54" width="0.4826" layer="1"/>
<wire x1="20.32" y1="3.4925" x2="20.32" y2="3.59" width="0.4826" layer="1"/>
<wire x1="9.525" y1="21.9075" x2="9.525" y2="19.05" width="0.4826" layer="16"/>
<wire x1="8.255" y1="23.1775" x2="9.525" y2="21.9075" width="0.4826" layer="16"/>
<wire x1="8.255" y1="25.4" x2="8.255" y2="23.1775" width="0.4826" layer="16"/>
<wire x1="8.255" y1="25.4" x2="7.94" y2="25.4" width="0.4826" layer="16"/>
<wire x1="3.81" y1="36.83" x2="3.81" y2="40.64" width="0.4826" layer="1"/>
<wire x1="5.08" y1="35.56" x2="3.81" y2="36.83" width="0.4826" layer="1"/>
<wire x1="9.525" y1="18.415" x2="9.525" y2="19.05" width="0.4826" layer="16"/>
<wire x1="8.89" y1="17.78" x2="9.04875" y2="17.93875" width="0.4826" layer="16"/>
<wire x1="9.04875" y1="17.93875" x2="9.525" y2="18.415" width="0.4826" layer="16"/>
<wire x1="6.985" y1="17.78" x2="8.89" y2="17.78" width="0.4826" layer="16"/>
<wire x1="5.08" y1="19.685" x2="6.985" y2="17.78" width="0.4826" layer="16"/>
<wire x1="5.08" y1="35.56" x2="5.08" y2="19.685" width="0.4826" layer="16"/>
<wire x1="9.525" y1="19.05" x2="9.84" y2="19.05" width="0.4826" layer="16"/>
<wire x1="18.415" y1="46.99" x2="19.05" y2="46.99" width="0.4826" layer="1"/>
<wire x1="14.605" y1="43.18" x2="18.415" y2="46.99" width="0.4826" layer="1"/>
<wire x1="10.16" y1="43.18" x2="14.605" y2="43.18" width="0.4826" layer="1"/>
<wire x1="33.655" y1="46.99" x2="34.29" y2="46.99" width="0.4826" layer="1"/>
<wire x1="32.385" y1="45.72" x2="33.655" y2="46.99" width="0.4826" layer="1"/>
<wire x1="20.32" y1="45.72" x2="32.385" y2="45.72" width="0.4826" layer="1"/>
<wire x1="19.05" y1="46.99" x2="20.32" y2="45.72" width="0.4826" layer="1"/>
<wire x1="7.62" y1="40.64" x2="3.81" y2="40.64" width="0.4826" layer="1"/>
<wire x1="10.16" y1="43.18" x2="7.62" y2="40.64" width="0.4826" layer="1"/>
<wire x1="8.255" y1="13.335" x2="1.27" y2="6.35" width="0.4826" layer="1"/>
<wire x1="8.5725" y1="13.335" x2="8.255" y2="13.335" width="0.4826" layer="1"/>
<wire x1="9.2075" y1="13.97" x2="8.5725" y2="13.335" width="0.4826" layer="1"/>
<wire x1="9.2075" y1="17.4625" x2="9.2075" y2="13.97" width="0.4826" layer="1"/>
<wire x1="9.2075" y1="17.78" x2="9.2075" y2="17.4625" width="0.4826" layer="16"/>
<wire x1="9.2075" y1="17.78" x2="9.04875" y2="17.93875" width="0.4826" layer="16"/>
<via x="9.2075" y="17.4625" extent="1-16" drill="0.35"/>
</signal>
<signal name="RST">
<contactref element="C3" pad="2"/>
<contactref element="M1" pad="J7.10"/>
<wire x1="28.575" y1="38.1" x2="29.53" y2="38.1" width="0.4826" layer="16"/>
<wire x1="25.4" y1="34.925" x2="28.575" y2="38.1" width="0.4826" layer="16"/>
<wire x1="25.4" y1="33.02" x2="25.4" y2="34.925" width="0.4826" layer="16"/>
<wire x1="21.9075" y1="29.5275" x2="25.4" y2="33.02" width="0.4826" layer="16"/>
<wire x1="21.9075" y1="19.05" x2="21.9075" y2="29.5275" width="0.4826" layer="16"/>
<wire x1="21.2725" y1="18.415" x2="21.9075" y2="19.05" width="0.4826" layer="16"/>
<wire x1="21.2725" y1="13.6525" x2="21.2725" y2="18.415" width="0.4826" layer="16"/>
<wire x1="16.51" y1="8.89" x2="21.2725" y2="13.6525" width="0.4826" layer="16"/>
</signal>
<signal name="MS3">
<contactref element="U$2" pad="MS3"/>
<contactref element="M1" pad="J6.5"/>
<wire x1="1.27" y1="14.605" x2="1.27" y2="13.97" width="0.4826" layer="1"/>
<wire x1="6.0325" y1="19.3675" x2="1.27" y2="14.605" width="0.4826" layer="1"/>
<wire x1="6.0325" y1="20.955" x2="6.0325" y2="19.3675" width="0.4826" layer="1"/>
<wire x1="13.0175" y1="27.94" x2="6.0325" y2="20.955" width="0.4826" layer="1"/>
<wire x1="17.78" y1="27.94" x2="13.0175" y2="27.94" width="0.4826" layer="1"/>
<wire x1="24.13" y1="34.29" x2="17.78" y2="27.94" width="0.4826" layer="1"/>
</signal>
<signal name="MS2">
<contactref element="U$2" pad="MS2"/>
<contactref element="M1" pad="J6.6"/>
<wire x1="1.27" y1="17.145" x2="1.27" y2="16.51" width="0.4826" layer="1"/>
<wire x1="14.605" y1="30.48" x2="1.27" y2="17.145" width="0.4826" layer="1"/>
<wire x1="17.78" y1="30.48" x2="14.605" y2="30.48" width="0.4826" layer="1"/>
<wire x1="21.59" y1="34.29" x2="17.78" y2="30.48" width="0.4826" layer="1"/>
</signal>
<signal name="MS1">
<contactref element="U$2" pad="MS1"/>
<contactref element="M1" pad="J6.7"/>
<wire x1="1.905" y1="19.05" x2="1.27" y2="19.05" width="0.4826" layer="1"/>
<wire x1="15.875" y1="33.02" x2="1.905" y2="19.05" width="0.4826" layer="1"/>
<wire x1="17.78" y1="33.02" x2="15.875" y2="33.02" width="0.4826" layer="1"/>
<wire x1="19.05" y1="34.29" x2="17.78" y2="33.02" width="0.4826" layer="1"/>
</signal>
<signal name="VCC">
<contactref element="G1" pad="+"/>
<contactref element="U$2" pad="VMOT"/>
<contactref element="C4" pad="1"/>
<contactref element="R4" pad="1"/>
<contactref element="IC1" pad="3"/>
<wire x1="3.175" y1="35.56" x2="2.54" y2="35.56" width="0.4826" layer="16"/>
<wire x1="5.715" y1="38.1" x2="3.175" y2="35.56" width="0.4826" layer="16"/>
<wire x1="10.16" y1="38.1" x2="5.715" y2="38.1" width="0.4826" layer="16"/>
<wire x1="10.795" y1="7.62" x2="8.89" y2="7.62" width="0.4826" layer="16"/>
<wire x1="15.875" y1="12.7" x2="10.795" y2="7.62" width="0.4826" layer="16"/>
<wire x1="17.145" y1="12.7" x2="15.875" y2="12.7" width="0.4826" layer="16"/>
<wire x1="20.6375" y1="16.1925" x2="17.145" y2="12.7" width="0.4826" layer="16"/>
<wire x1="20.6375" y1="21.9075" x2="20.6375" y2="16.1925" width="0.4826" layer="16"/>
<wire x1="21.2725" y1="22.5425" x2="20.6375" y2="21.9075" width="0.4826" layer="16"/>
<wire x1="21.2725" y1="32.7025" x2="21.2725" y2="22.5425" width="0.4826" layer="16"/>
<wire x1="20.32" y1="33.655" x2="21.2725" y2="32.7025" width="0.4826" layer="16"/>
<wire x1="20.32" y1="36.83" x2="20.32" y2="33.655" width="0.4826" layer="16"/>
<wire x1="20.955" y1="37.465" x2="20.32" y2="36.83" width="0.4826" layer="16"/>
<wire x1="20.955" y1="38.1" x2="20.955" y2="37.465" width="0.4826" layer="16"/>
<wire x1="8.89" y1="7.62" x2="8.89" y2="7.45" width="0.4826" layer="16"/>
<wire x1="16.51" y1="45.085" x2="16.51" y2="46.99" width="0.4826" layer="16"/>
<wire x1="20.955" y1="40.64" x2="17.93875" y2="43.65625" width="0.4826" layer="16"/>
<wire x1="17.93875" y1="43.65625" x2="16.51" y2="45.085" width="0.4826" layer="16"/>
<wire x1="20.955" y1="38.1" x2="20.955" y2="40.64" width="0.4826" layer="16"/>
<wire x1="20.955" y1="38.1" x2="21.27" y2="38.1" width="0.4826" layer="16"/>
<wire x1="12.3825" y1="38.1" x2="10.16" y2="38.1" width="0.4826" layer="16"/>
<wire x1="17.93875" y1="43.65625" x2="12.3825" y2="38.1" width="0.4826" layer="16"/>
</signal>
<signal name="STEP">
<contactref element="U$2" pad="STEP"/>
<contactref element="M1" pad="J7.4"/>
<wire x1="17.78" y1="24.13" x2="16.51" y2="24.13" width="0.4826" layer="1"/>
<wire x1="26.67" y1="33.02" x2="17.78" y2="24.13" width="0.4826" layer="1"/>
<wire x1="30.48" y1="33.02" x2="26.67" y2="33.02" width="0.4826" layer="1"/>
<wire x1="31.75" y1="34.29" x2="30.48" y2="33.02" width="0.4826" layer="1"/>
</signal>
<signal name="DIR">
<contactref element="U$2" pad="DIR"/>
<contactref element="M1" pad="J7.6"/>
<wire x1="16.51" y1="19.685" x2="16.51" y2="19.05" width="0.4826" layer="16"/>
<wire x1="15.24" y1="20.955" x2="16.51" y2="19.685" width="0.4826" layer="16"/>
<wire x1="15.24" y1="24.765" x2="15.24" y2="20.955" width="0.4826" layer="16"/>
<wire x1="15.875" y1="25.4" x2="15.24" y2="24.765" width="0.4826" layer="16"/>
<wire x1="17.145" y1="25.4" x2="15.875" y2="25.4" width="0.4826" layer="16"/>
<wire x1="25.4" y1="33.655" x2="17.145" y2="25.4" width="0.4826" layer="1"/>
<wire x1="25.4" y1="34.925" x2="25.4" y2="33.655" width="0.4826" layer="1"/>
<wire x1="26.035" y1="35.56" x2="25.4" y2="34.925" width="0.4826" layer="1"/>
<wire x1="33.02" y1="35.56" x2="26.035" y2="35.56" width="0.4826" layer="1"/>
<wire x1="34.29" y1="34.29" x2="33.02" y2="35.56" width="0.4826" layer="1"/>
<via x="17.145" y="25.4" extent="1-16" drill="0.35"/>
</signal>
<signal name="ENABLE">
<contactref element="U$2" pad="ENABLE"/>
<contactref element="M1" pad="J6.8"/>
<wire x1="3.4925" y1="21.59" x2="1.27" y2="21.59" width="0.4826" layer="1"/>
<wire x1="16.1925" y1="34.29" x2="3.4925" y2="21.59" width="0.4826" layer="1"/>
<wire x1="16.51" y1="34.29" x2="16.1925" y2="34.29" width="0.4826" layer="1"/>
</signal>
<signal name="TX">
<contactref element="M1" pad="J7.12"/>
</signal>
<signal name="RX">
<contactref element="M1" pad="J7.11"/>
</signal>
<signal name="3V3">
<contactref element="C1" pad="1"/>
<contactref element="U1" pad="12"/>
<contactref element="IC1" pad="2"/>
<contactref element="M1" pad="J6.4"/>
<contactref element="U$2" pad="SLEEP"/>
<contactref element="U$2" pad="RESET"/>
<wire x1="29.21" y1="34.29" x2="26.67" y2="34.29" width="0.4826" layer="1"/>
<wire x1="7.9375" y1="8.255" x2="7.9375" y2="6.35" width="0.4826" layer="16"/>
<wire x1="7.9375" y1="6.35" x2="7.9375" y2="5.3975" width="0.4826" layer="16"/>
<wire x1="11.1125" y1="11.43" x2="10.31875" y2="10.63625" width="0.4826" layer="16"/>
<wire x1="10.31875" y1="10.63625" x2="7.9375" y2="8.255" width="0.4826" layer="16"/>
<wire x1="11.1125" y1="13.6525" x2="11.1125" y2="11.43" width="0.4826" layer="16"/>
<wire x1="9.525" y1="15.24" x2="11.1125" y2="13.6525" width="0.4826" layer="16"/>
<wire x1="7.9375" y1="15.24" x2="9.525" y2="15.24" width="0.4826" layer="16"/>
<wire x1="5.08" y1="12.3825" x2="7.9375" y2="15.24" width="0.4826" layer="16"/>
<wire x1="5.08" y1="12.065" x2="5.08" y2="12.3825" width="0.4826" layer="16"/>
<wire x1="4.445" y1="11.43" x2="5.08" y2="12.065" width="0.4826" layer="16"/>
<wire x1="1.27" y1="11.43" x2="4.445" y2="11.43" width="0.4826" layer="16"/>
<wire x1="7.9375" y1="5.3975" x2="7.94" y2="5.25" width="0.4826" layer="16"/>
<wire x1="9.525" y1="23.1775" x2="9.525" y2="25.4" width="0.4826" layer="16"/>
<wire x1="6.6675" y1="20.32" x2="9.525" y2="23.1775" width="0.4826" layer="1"/>
<wire x1="6.6675" y1="16.1925" x2="6.6675" y2="20.32" width="0.4826" layer="1"/>
<wire x1="4.445" y1="13.97" x2="6.6675" y2="16.1925" width="0.4826" layer="1"/>
<wire x1="3.175" y1="13.97" x2="4.445" y2="13.97" width="0.4826" layer="1"/>
<wire x1="1.27" y1="12.065" x2="3.175" y2="13.97" width="0.4826" layer="1"/>
<wire x1="1.27" y1="11.43" x2="1.27" y2="12.065" width="0.4826" layer="1"/>
<wire x1="9.525" y1="25.4" x2="9.84" y2="25.4" width="0.4826" layer="16"/>
<wire x1="15.875" y1="5.08" x2="20.32" y2="5.08" width="0.4826" layer="1"/>
<wire x1="10.4775" y1="10.4775" x2="15.875" y2="5.08" width="0.4826" layer="1"/>
<wire x1="20.32" y1="5.08" x2="20.32" y2="5.09" width="0.4826" layer="1"/>
<wire x1="10.4775" y1="10.4775" x2="10.31875" y2="10.63625" width="0.4826" layer="16"/>
<wire x1="26.67" y1="33.3375" x2="26.67" y2="34.29" width="0.4826" layer="16"/>
<wire x1="22.5425" y1="29.21" x2="26.67" y2="33.3375" width="0.4826" layer="16"/>
<wire x1="22.5425" y1="18.7325" x2="22.5425" y2="29.21" width="0.4826" layer="16"/>
<wire x1="21.9075" y1="18.0975" x2="22.5425" y2="18.7325" width="0.4826" layer="16"/>
<wire x1="21.9075" y1="12.3825" x2="21.9075" y2="18.0975" width="0.4826" layer="16"/>
<wire x1="17.145" y1="7.62" x2="21.9075" y2="12.3825" width="0.4826" layer="16"/>
<wire x1="11.7475" y1="7.62" x2="17.145" y2="7.62" width="0.4826" layer="16"/>
<wire x1="10.4775" y1="6.35" x2="11.7475" y2="7.62" width="0.4826" layer="16"/>
<wire x1="7.9375" y1="6.35" x2="10.4775" y2="6.35" width="0.4826" layer="16"/>
<via x="9.525" y="23.1775" extent="1-16" drill="0.35"/>
<via x="10.4775" y="10.4775" extent="1-16" drill="0.35"/>
</signal>
<signal name="M1B">
<contactref element="U$2" pad="M1B"/>
<contactref element="JP1" pad="4"/>
<wire x1="12.065" y1="48.26" x2="3.81" y2="48.26" width="0.4826" layer="1"/>
<wire x1="13.335" y1="46.99" x2="12.065" y2="48.26" width="0.4826" layer="1"/>
<wire x1="16.51" y1="43.815" x2="13.335" y2="46.99" width="0.4826" layer="16"/>
<wire x1="20.6375" y1="43.815" x2="16.51" y2="43.815" width="0.4826" layer="1"/>
<wire x1="26.035" y1="43.815" x2="20.6375" y2="43.815" width="0.4826" layer="16"/>
<wire x1="29.21" y1="46.99" x2="26.035" y2="43.815" width="0.4826" layer="16"/>
<via x="13.335" y="46.99" extent="1-16" drill="0.35"/>
<via x="16.51" y="43.815" extent="1-16" drill="0.35"/>
<via x="20.6375" y="43.815" extent="1-16" drill="0.35"/>
</signal>
<signal name="M1A">
<contactref element="U$2" pad="M1A"/>
<contactref element="JP1" pad="2"/>
<wire x1="2.2225" y1="48.26" x2="1.27" y2="48.26" width="0.4826" layer="16"/>
<wire x1="3.4925" y1="46.99" x2="2.2225" y2="48.26" width="0.4826" layer="16"/>
<wire x1="12.065" y1="46.99" x2="3.4925" y2="46.99" width="0.4826" layer="16"/>
<wire x1="13.335" y1="48.26" x2="12.065" y2="46.99" width="0.4826" layer="16"/>
<wire x1="25.4" y1="48.26" x2="13.335" y2="48.26" width="0.4826" layer="16"/>
<wire x1="26.67" y1="46.99" x2="25.4" y2="48.26" width="0.4826" layer="16"/>
</signal>
<signal name="M2B">
<contactref element="U$2" pad="M2AB"/>
<contactref element="JP1" pad="3"/>
<wire x1="13.335" y1="45.72" x2="3.81" y2="45.72" width="0.4826" layer="1"/>
<wire x1="15.875" y1="48.26" x2="13.335" y2="45.72" width="0.4826" layer="1"/>
<wire x1="20.32" y1="48.26" x2="15.875" y2="48.26" width="0.4826" layer="1"/>
<wire x1="21.59" y1="46.99" x2="20.32" y2="48.26" width="0.4826" layer="1"/>
</signal>
<signal name="M2A">
<contactref element="U$2" pad="M2A"/>
<contactref element="JP1" pad="1"/>
<wire x1="1.27" y1="43.18" x2="1.27" y2="45.72" width="0.4826" layer="1"/>
<wire x1="2.54" y1="41.91" x2="1.27" y2="43.18" width="0.4826" layer="1"/>
<wire x1="2.54" y1="37.465" x2="2.54" y2="41.91" width="0.4826" layer="1"/>
<wire x1="1.27" y1="36.195" x2="2.54" y2="37.465" width="0.4826" layer="1"/>
<wire x1="1.27" y1="34.925" x2="1.27" y2="36.195" width="0.4826" layer="1"/>
<wire x1="1.905" y1="34.29" x2="1.27" y2="34.925" width="0.4826" layer="1"/>
<wire x1="12.3825" y1="34.29" x2="1.905" y2="34.29" width="0.4826" layer="1"/>
<wire x1="22.86" y1="44.7675" x2="12.3825" y2="34.29" width="0.4826" layer="1"/>
<wire x1="22.86" y1="45.72" x2="22.86" y2="44.7675" width="0.4826" layer="16"/>
<wire x1="24.13" y1="46.99" x2="22.86" y2="45.72" width="0.4826" layer="16"/>
<via x="22.86" y="44.7675" extent="1-16" drill="0.35"/>
</signal>
<signal name="KEY">
<contactref element="U1" pad="34"/>
<contactref element="R1" pad="1"/>
<contactref element="M1" pad="J7.1"/>
<wire x1="8.255" y1="14.2875" x2="8.255" y2="12.7" width="0.4826" layer="16"/>
<wire x1="8.255" y1="20.6375" x2="8.255" y2="18.415" width="0.4826" layer="1"/>
<wire x1="8.255" y1="18.415" x2="8.255" y2="14.2875" width="0.4826" layer="1"/>
<wire x1="14.605" y1="26.9875" x2="8.255" y2="20.6375" width="0.4826" layer="1"/>
<wire x1="14.605" y1="29.845" x2="14.605" y2="26.9875" width="0.4826" layer="16"/>
<wire x1="16.51" y1="31.75" x2="14.605" y2="29.845" width="0.4826" layer="16"/>
<wire x1="8.255" y1="12.7" x2="7.94" y2="12.7" width="0.4826" layer="16"/>
<wire x1="26.3525" y1="21.59" x2="33.32" y2="21.59" width="0.4826" layer="1"/>
<wire x1="22.5425" y1="17.78" x2="26.3525" y2="21.59" width="0.4826" layer="16"/>
<wire x1="22.5425" y1="11.7475" x2="22.5425" y2="17.78" width="0.4826" layer="16"/>
<wire x1="18.7325" y1="7.9375" x2="22.5425" y2="11.7475" width="0.4826" layer="16"/>
<wire x1="18.7325" y1="11.1125" x2="18.7325" y2="7.9375" width="0.4826" layer="1"/>
<wire x1="17.145" y1="12.7" x2="18.7325" y2="11.1125" width="0.4826" layer="1"/>
<wire x1="15.24" y1="12.7" x2="17.145" y2="12.7" width="0.4826" layer="1"/>
<wire x1="9.525" y1="18.415" x2="15.24" y2="12.7" width="0.4826" layer="1"/>
<wire x1="8.255" y1="18.415" x2="9.525" y2="18.415" width="0.4826" layer="1"/>
<via x="8.255" y="14.2875" extent="1-16" drill="0.35"/>
<via x="14.605" y="26.9875" extent="1-16" drill="0.35"/>
<via x="26.3525" y="21.59" extent="1-16" drill="0.35"/>
<via x="18.7325" y="7.9375" extent="1-16" drill="0.35"/>
</signal>
<signal name="N$4">
<contactref element="U1" pad="25"/>
</signal>
<signal name="STATE">
<contactref element="U1" pad="32"/>
<contactref element="C3" pad="1"/>
<wire x1="31.115" y1="35.56" x2="31.115" y2="38.1" width="0.4826" layer="16"/>
<wire x1="30.48" y1="34.925" x2="31.115" y2="35.56" width="0.4826" layer="16"/>
<wire x1="30.48" y1="20.6375" x2="30.48" y2="34.925" width="0.4826" layer="16"/>
<wire x1="32.385" y1="18.7325" x2="30.48" y2="20.6375" width="0.4826" layer="1"/>
<wire x1="33.02" y1="18.7325" x2="32.385" y2="18.7325" width="0.4826" layer="1"/>
<wire x1="31.115" y1="38.1" x2="31.43" y2="38.1" width="0.4826" layer="16"/>
<wire x1="33.02" y1="18.7325" x2="33.32" y2="18.59" width="0.4826" layer="1"/>
<via x="30.48" y="20.6375" extent="1-16" drill="0.35"/>
</signal>
<signal name="MBATTERY">
<contactref element="R4" pad="2"/>
<contactref element="R5" pad="1"/>
<contactref element="M1" pad="J3.2"/>
<wire x1="7.9375" y1="22.5425" x2="7.9375" y2="19.05" width="0.4826" layer="16"/>
<wire x1="6.35" y1="24.13" x2="7.9375" y2="22.5425" width="0.4826" layer="16"/>
<wire x1="6.35" y1="31.115" x2="6.35" y2="24.13" width="0.4826" layer="16"/>
<wire x1="7.9375" y1="19.05" x2="7.94" y2="19.05" width="0.4826" layer="16"/>
<wire x1="13.335" y1="38.1" x2="19.37" y2="38.1" width="0.4826" layer="16"/>
<wire x1="6.35" y1="31.115" x2="13.335" y2="38.1" width="0.4826" layer="16"/>
<wire x1="6.35" y1="31.115" x2="6.35" y2="31.75" width="0.4826" layer="16"/>
</signal>
<signal name="BMASTER">
<contactref element="M1" pad="J7.5"/>
<contactref element="U1" pad="28"/>
<wire x1="31.4325" y1="12.7" x2="33.02" y2="12.7" width="0.4826" layer="1"/>
<wire x1="21.2725" y1="22.86" x2="31.4325" y2="12.7" width="0.4826" layer="1"/>
<wire x1="20.32" y1="22.86" x2="21.2725" y2="22.86" width="0.4826" layer="1"/>
<wire x1="17.78" y1="22.86" x2="20.32" y2="22.86" width="0.4826" layer="16"/>
<wire x1="16.51" y1="21.59" x2="17.78" y2="22.86" width="0.4826" layer="16"/>
<wire x1="33.02" y1="12.7" x2="33.32" y2="12.59" width="0.4826" layer="1"/>
<via x="20.32" y="22.86" extent="1-16" drill="0.35"/>
</signal>
<signal name="SWHW">
<contactref element="U1" pad="27"/>
<contactref element="M1" pad="J7.3"/>
<wire x1="33.9725" y1="11.1125" x2="33.3375" y2="11.1125" width="0.4826" layer="1"/>
<wire x1="34.925" y1="12.065" x2="33.9725" y2="11.1125" width="0.4826" layer="1"/>
<wire x1="34.925" y1="22.225" x2="34.925" y2="12.065" width="0.4826" layer="1"/>
<wire x1="32.385" y1="24.765" x2="34.925" y2="22.225" width="0.4826" layer="1"/>
<wire x1="19.3675" y1="24.765" x2="32.385" y2="24.765" width="0.4826" layer="1"/>
<wire x1="17.4625" y1="22.86" x2="19.3675" y2="24.765" width="0.4826" layer="1"/>
<wire x1="15.875" y1="22.86" x2="17.4625" y2="22.86" width="0.4826" layer="1"/>
<wire x1="15.24" y1="23.495" x2="15.875" y2="22.86" width="0.4826" layer="1"/>
<wire x1="15.24" y1="25.4" x2="15.24" y2="23.495" width="0.4826" layer="1"/>
<wire x1="16.51" y1="26.67" x2="15.24" y2="25.4" width="0.4826" layer="1"/>
<wire x1="33.3375" y1="11.1125" x2="33.32" y2="11.09" width="0.4826" layer="1"/>
</signal>
<signal name="RAW">
<contactref element="M1" pad="J6.1"/>
</signal>
<signal name="ENDSTOP">
<contactref element="M1" pad="J7.8"/>
<contactref element="JP2" pad="2"/>
<wire x1="1.27" y1="33.655" x2="1.27" y2="40.64" width="0.4826" layer="16"/>
<wire x1="2.54" y1="32.385" x2="1.27" y2="33.655" width="0.4826" layer="16"/>
<wire x1="2.54" y1="21.2725" x2="2.54" y2="32.385" width="0.4826" layer="16"/>
<wire x1="7.9375" y1="15.875" x2="2.54" y2="21.2725" width="0.4826" layer="16"/>
<wire x1="14.605" y1="15.875" x2="7.9375" y2="15.875" width="0.4826" layer="16"/>
<wire x1="16.51" y1="13.97" x2="14.605" y2="15.875" width="0.4826" layer="16"/>
</signal>
<signal name="VDD">
<contactref element="U$2" pad="+5V"/>
</signal>
<signal name="BTTX">
<contactref element="M1" pad="J6.12"/>
<contactref element="U1" pad="1"/>
<wire x1="19.3675" y1="22.5425" x2="20.32" y2="21.59" width="0.4826" layer="1"/>
<wire x1="19.3675" y1="23.495" x2="19.3675" y2="22.5425" width="0.4826" layer="1"/>
<wire x1="19.685" y1="23.8125" x2="19.3675" y2="23.495" width="0.4826" layer="1"/>
<wire x1="19.685" y1="30.48" x2="19.685" y2="23.8125" width="0.4826" layer="16"/>
<wire x1="17.145" y1="33.02" x2="19.685" y2="30.48" width="0.4826" layer="16"/>
<wire x1="9.525" y1="33.02" x2="17.145" y2="33.02" width="0.4826" layer="16"/>
<wire x1="2.54" y1="33.02" x2="9.525" y2="33.02" width="0.4826" layer="1"/>
<wire x1="1.27" y1="31.75" x2="2.54" y2="33.02" width="0.4826" layer="1"/>
<via x="19.685" y="23.8125" extent="1-16" drill="0.35"/>
<via x="9.525" y="33.02" extent="1-16" drill="0.35"/>
</signal>
<signal name="BTRX">
<contactref element="M1" pad="J6.11"/>
<contactref element="U1" pad="2"/>
<wire x1="15.875" y1="20.32" x2="20.32" y2="20.32" width="0.4826" layer="1"/>
<wire x1="12.7" y1="23.495" x2="15.875" y2="20.32" width="0.4826" layer="1"/>
<wire x1="12.7" y1="24.765" x2="12.7" y2="23.495" width="0.4826" layer="16"/>
<wire x1="8.255" y1="29.21" x2="12.7" y2="24.765" width="0.4826" layer="16"/>
<wire x1="1.27" y1="29.21" x2="8.255" y2="29.21" width="0.4826" layer="1"/>
<wire x1="20.32" y1="20.32" x2="20.32" y2="20.09" width="0.4826" layer="1"/>
<via x="12.7" y="23.495" extent="1-16" drill="0.35"/>
<via x="8.255" y="29.21" extent="1-16" drill="0.35"/>
</signal>
</signals>
<mfgpreviewcolors>
<mfgpreviewcolor name="soldermaskcolor" color="0xC8008000"/>
<mfgpreviewcolor name="silkscreencolor" color="0xFFFEFEFE"/>
<mfgpreviewcolor name="backgroundcolor" color="0xFF282828"/>
<mfgpreviewcolor name="coppercolor" color="0xFFFFBF00"/>
<mfgpreviewcolor name="substratecolor" color="0xFF786E46"/>
</mfgpreviewcolors>
</board>
</drawing>
<compatibility>
<note version="8.2" severity="warning">
Since Version 8.2, EAGLE supports online libraries. The ids
of those online libraries will not be understood (or retained)
with this version.
</note>
<note version="8.3" severity="warning">
Since Version 8.3, EAGLE supports URNs for individual library
assets (packages, symbols, and devices). The URNs of those assets
will not be understood (or retained) with this version.
</note>
<note version="8.3" severity="warning">
Since Version 8.3, EAGLE supports the association of 3D packages
with devices in libraries, schematics, and board files. Those 3D
packages will not be understood (or retained) with this version.
</note>
<note version="9.5" severity="warning">
Since Version 9.5, EAGLE supports persistent groups with
schematics, and board files. Those persistent groups
will not be understood (or retained) with this version.
</note>
</compatibility>
</eagle>
